<?xml version="1.0" encoding="utf-8"?>
<!-- Generator: Adobe Illustrator 16.0.0, SVG Export Plug-In . SVG Version: 6.00 Build 0)  -->
<!DOCTYPE svg PUBLIC "-//W3C//DTD SVG 1.1//EN" "http://www.w3.org/Graphics/SVG/1.1/DTD/svg11.dtd">
<svg version="1.1" id="Layer_1" xmlns="http://www.w3.org/2000/svg" xmlns:xlink="http://www.w3.org/1999/xlink" x="0px" y="0px"
	 width="21.001px" height="18px" viewBox="0 0 21.001 18" enable-background="new 0 0 21.001 18" xml:space="preserve">
<path fill="#999999" d="M19.82,5.214c-0.217-0.091-0.452-0.141-0.699-0.141h-1.982V3.979c0-0.553-0.205-1.077-0.578-1.475
	c-0.375-0.402-0.872-0.624-1.398-0.624h-3.014c-1.141,0-2.14,0.004-3.055,0.014H6.552c-0.124,0-0.233-0.083-0.27-0.207L6.036,0.859
	C5.883,0.345,5.434,0,4.918,0H1.286C0.58,0,0.005,0.6,0.005,1.338V1.88H0v13.462c0,0.999,0.53,1.903,1.382,2.361
	c0.027,0.015,0.054,0.028,0.079,0.041c0.011,0.005,0.021,0.01,0.031,0.015l0.013,0.006c0.052,0.025,0.107,0.049,0.164,0.07
	c0.121,0.047,0.246,0.084,0.371,0.111c0.121,0.025,0.244,0.042,0.365,0.049C2.452,17.999,2.501,18,2.55,18h16.371
	c1.146,0,2.08-0.975,2.08-2.172V7.037C21.001,6.212,20.511,5.504,19.82,5.214z M3.832,7.037v8.459c0,0.435-0.193,0.835-0.501,1.099
	c-0.156,0.135-0.341,0.234-0.544,0.285l-0.692-0.031c-0.624-0.206-1.057-0.823-1.057-1.507V1.338c0-0.144,0.112-0.261,0.25-0.261
	h3.532c0.125,0,0.233,0.083,0.27,0.208l0.245,0.821C5.485,2.62,5.935,2.965,6.45,2.965h3.401V2.958
	c0.667-0.002,1.335-0.005,2.003-0.007c0.262-0.001,0.524-0.001,0.787-0.001h2.52c0.516,0,0.951,0.471,0.951,1.028v1.095H5.711
	c-0.247,0-0.483,0.05-0.699,0.141C4.321,5.504,3.832,6.212,3.832,7.037z"/>
</svg>
