<?xml version="1.0" encoding="iso-8859-1"?>
<!-- Generator: Adobe Illustrator 18.0.0, SVG Export Plug-In . SVG Version: 6.00 Build 0)  -->
<!DOCTYPE svg PUBLIC "-//W3C//DTD SVG 1.1//EN" "http://www.w3.org/Graphics/SVG/1.1/DTD/svg11.dtd">
<svg version="1.1" id="Layer_1" xmlns="http://www.w3.org/2000/svg" xmlns:xlink="http://www.w3.org/1999/xlink" x="0px" y="0px"
	 viewBox="0 0 24 24" style="enable-background:new 0 0 24 24;" xml:space="preserve">
<g>
	<circle style="fill:#DAE1E6;" cx="12" cy="12.972" r="7.979"/>
	<g>
		<path d="M8.443,9.152c0.063,0,0.125-0.026,0.17-0.07c0.045-0.045,0.07-0.107,0.07-0.17c0-0.063-0.026-0.125-0.07-0.17
			c-0.045-0.045-0.107-0.07-0.17-0.07c-0.063,0-0.125,0.026-0.17,0.07c-0.045,0.045-0.07,0.107-0.07,0.17
			c0,0.063,0.026,0.125,0.07,0.17C8.318,9.126,8.38,9.152,8.443,9.152z"/>
		<path d="M15.916,3H8.084c-0.133,0-0.24,0.108-0.24,0.24v0.961c0,0.133,0.108,0.24,0.24,0.24h0.119V7.95
			c0,0.133,0.108,0.24,0.24,0.24c0.133,0,0.24-0.108,0.24-0.24V4.442h5.671v1.402c0,0.133,0.108,0.24,0.24,0.24
			c0.133,0,0.24-0.108,0.24-0.24V4.442h0.481v4.573l-0.406-0.406c-0.094-0.094-0.246-0.094-0.34,0l-2.696,1.783l-0.497-0.352
			c-0.094-0.094-0.246-0.094-0.34,0l-2.354,1.393v-1.56c0-0.133-0.108-0.24-0.24-0.24c-0.133,0-0.24,0.108-0.24,0.24v3.989H8.084
			c-0.133,0-0.24,0.108-0.24,0.24v0.961c0,0.133,0.108,0.24,0.24,0.24h7.831c0.133,0,0.24-0.108,0.24-0.24v-0.961
			c0-0.133-0.108-0.24-0.24-0.24h-0.119v-9.42h0.119c0.133,0,0.24-0.108,0.24-0.24V3.24C16.156,3.108,16.048,3,15.916,3z
			 M14.741,9.119l0.576,0.576v3.323l-3.102-2.285L14.741,9.119z M15.675,14.823H8.325v-0.481h7.351V14.823z M8.684,13.862v-1.75
			l2.452-1.611l4.277,3.244l-0.096,0.117H8.684z M8.443,3.961H8.325V3.481h7.351v0.481H8.443z"/>
		<path d="M12.246,7.096c0-0.522-0.425-0.946-0.946-0.946s-0.946,0.425-0.946,0.946s0.424,0.946,0.946,0.946
			S12.246,7.618,12.246,7.096z M10.834,7.096c0-0.257,0.209-0.466,0.466-0.466s0.466,0.209,0.466,0.466
			c0,0.257-0.209,0.466-0.466,0.466S10.834,7.353,10.834,7.096z"/>
		<path d="M14.765,6.963c0.045-0.045,0.07-0.106,0.07-0.17c0-0.063-0.026-0.125-0.07-0.17c-0.045-0.045-0.107-0.07-0.17-0.07
			c-0.063,0-0.125,0.026-0.17,0.07c-0.045,0.045-0.07,0.107-0.07,0.17c0,0.063,0.026,0.125,0.07,0.17
			c0.045,0.045,0.107,0.07,0.17,0.07C14.659,7.033,14.721,7.008,14.765,6.963z"/>
	</g>
</g>
</svg>
