<?xml version="1.0" encoding="iso-8859-1"?>
<!-- Generator: Adobe Illustrator 18.0.0, SVG Export Plug-In . SVG Version: 6.00 Build 0)  -->
<!DOCTYPE svg PUBLIC "-//W3C//DTD SVG 1.1//EN" "http://www.w3.org/Graphics/SVG/1.1/DTD/svg11.dtd">
<svg version="1.1" id="Layer_1" xmlns="http://www.w3.org/2000/svg" xmlns:xlink="http://www.w3.org/1999/xlink" x="0px" y="0px"
	 viewBox="0 0 24 24" style="enable-background:new 0 0 24 24;" xml:space="preserve">
<g>
	<circle style="fill:#DAE1E6;" cx="12" cy="13.028" r="7.979"/>
	<g>
		<path d="M10.403,4.859c-0.853,0-1.707-0.006-2.56,0.008C7.737,4.869,7.629,4.977,7.529,5.046c-0.325,0.222-0.705,0.193-0.96-0.078
			C6.317,4.701,6.311,4.279,6.554,4.004c0.249-0.281,0.618-0.306,0.96-0.11C7.695,3.998,7.916,4.086,8.12,4.087
			c1.678,0.015,3.357,0,5.035,0.016c0.325,0.003,0.563-0.083,0.772-0.325c0.184-0.212,0.404-0.393,0.6-0.596
			c0.228-0.236,0.449-0.262,0.691-0.019c0.328,0.33,0.661,0.655,0.996,0.978c0.246,0.238,0.223,0.462-0.01,0.691
			c-0.201,0.198-0.377,0.428-0.6,0.595c-0.291,0.217-0.281,0.453-0.129,0.726c0.643,1.155,1.275,2.316,1.939,3.459
			c0.289,0.498,0.307,0.541-0.123,0.897c-0.56,0.463-0.771,1.089-0.821,1.79c-0.046,0.648-0.083,0.679-0.739,0.679
			c-0.592,0-1.185-0.008-1.777,0.003c-0.35,0.006-0.51-0.135-0.528-0.495c-0.043-0.855-0.317-1.595-1.089-2.08
			c-0.33-0.208-0.188-0.455-0.032-0.724c0.663-1.143,1.315-2.294,1.947-3.454c0.092-0.169,0.154-0.509,0.063-0.595
			c-0.316-0.299-0.497-0.866-1.074-0.753c-0.673,0.132-1.376,0.228-1.991,0.507C9.879,6.008,9.241,7.18,9.134,8.65
			C9.122,8.817,9.222,9.024,9.333,9.161c0.213,0.261,0.468,0.488,0.712,0.723c0.234,0.227,0.266,0.45,0.022,0.691
			c-0.342,0.336-0.678,0.678-1.018,1.016c-0.207,0.207-0.423,0.209-0.63,0.006c-0.352-0.346-0.702-0.694-1.047-1.047
			c-0.204-0.209-0.209-0.447,0.02-0.625c0.691-0.538,0.989-1.22,1.107-2.103c0.152-1.135,0.795-2.064,1.744-2.747
			c0.057-0.041,0.108-0.088,0.16-0.135C10.409,4.934,10.403,4.915,10.403,4.859z M16.707,9.991
			c-0.464-0.766-0.918-1.517-1.372-2.268c-0.074,0.437-0.048,0.869-0.087,1.295c-0.015,0.161-0.15,0.404-0.281,0.443
			c-0.316,0.097-0.458-0.129-0.463-0.427c-0.008-0.422-0.002-0.844-0.002-1.266c-0.03,0-0.061,0-0.091,0
			c-0.442,0.729-0.884,1.458-1.346,2.219c0.7,0.569,1.005,1.354,1.124,2.201c0.535,0,1.022,0,1.514,0
			C15.79,11.324,16.088,10.581,16.707,9.991z M14.326,4.445c0.2,0.206,0.38,0.392,0.558,0.575c0.194-0.173,0.387-0.345,0.53-0.472
			c-0.198-0.226-0.369-0.422-0.553-0.632C14.664,4.11,14.487,4.286,14.326,4.445z M9.265,10.302
			C9.06,10.068,8.895,9.881,8.712,9.673c-0.184,0.184-0.362,0.361-0.569,0.568c0.203,0.203,0.387,0.388,0.564,0.565
			C8.926,10.609,9.113,10.44,9.265,10.302z"/>
		<path d="M14.886,14.165c-0.746,0-1.491-0.004-2.237,0.002c-0.271,0.002-0.505-0.065-0.512-0.367
			c-0.009-0.329,0.235-0.4,0.523-0.399c1.477,0.005,2.955,0.005,4.432,0c0.285-0.001,0.536,0.059,0.533,0.389
			c-0.003,0.332-0.262,0.38-0.543,0.378C16.35,14.16,15.618,14.165,14.886,14.165z"/>
	</g>
</g>
</svg>
