<?xml version="1.0" encoding="iso-8859-1"?>
<!-- Generator: Adobe Illustrator 18.0.0, SVG Export Plug-In . SVG Version: 6.00 Build 0)  -->
<!DOCTYPE svg PUBLIC "-//W3C//DTD SVG 1.1//EN" "http://www.w3.org/Graphics/SVG/1.1/DTD/svg11.dtd">
<svg version="1.1" id="Layer_1" xmlns="http://www.w3.org/2000/svg" xmlns:xlink="http://www.w3.org/1999/xlink" x="0px" y="0px"
	 viewBox="0 0 24 24" style="enable-background:new 0 0 24 24;" xml:space="preserve">
<g>
	<circle style="fill:#DAE1E6;" cx="12" cy="13.004" r="7.979"/>
	<path d="M7.857,9.619C7.743,9.714,7.629,9.82,7.504,9.911c-0.185,0.133-0.379,0.255-0.568,0.382
		c-0.276,0.186-0.566,0.126-0.742-0.161C6.06,9.913,5.934,9.689,5.805,9.466C5.569,9.057,5.328,8.65,5.098,8.237
		c-0.167-0.3-0.171-0.608,0.014-0.905C5.745,6.319,6.383,5.31,7.012,4.294c0.196-0.317,0.483-0.511,0.801-0.676
		C8.132,3.454,8.452,3.291,8.77,3.125c0.258-0.135,0.498-0.139,0.779-0.013c0.281,0.127,0.597,0.193,0.904,0.239
		c0.513,0.077,1.013-0.019,1.498-0.2c0.132-0.049,0.263-0.12,0.399-0.132c0.123-0.011,0.263,0.021,0.376,0.076
		c0.389,0.188,0.766,0.4,1.153,0.592c0.335,0.166,0.564,0.429,0.755,0.743c0.313,0.516,0.639,1.024,0.959,1.535
		c0.071,0.114,0.17,0.146,0.285,0.075c0.189-0.117,0.384-0.115,0.572-0.021c0.404,0.203,0.803,0.416,1.202,0.63
		c0.2,0.107,0.333,0.284,0.451,0.473c0.273,0.435,0.544,0.871,0.819,1.305c0.072,0.114,0.113,0.231,0.105,0.368
		c-0.008,0.127-0.055,0.227-0.158,0.302c-0.264,0.191-0.527,0.384-0.792,0.575c-0.249,0.179-0.452,0.142-0.625-0.109
		c-0.025-0.036-0.049-0.072-0.098-0.104c0,0.046,0,0.092,0,0.139c0,1.301,0,2.603,0,3.904c0,0.446-0.225,0.672-0.667,0.672
		c-0.102,0-0.204,0.001-0.306,0c-0.124-0.002-0.212-0.086-0.213-0.201c-0.001-0.118,0.082-0.208,0.206-0.214
		c0.11-0.005,0.22,0,0.33-0.002c0.171-0.004,0.216-0.05,0.216-0.221c0-1.436-0.001-2.872,0.002-4.308
		c0-0.101,0.012-0.204,0.039-0.301c0.062-0.221,0.283-0.296,0.46-0.146c0.094,0.079,0.161,0.192,0.234,0.294
		c0.057,0.079,0.104,0.164,0.162,0.257c0.267-0.194,0.525-0.382,0.796-0.579c-0.112-0.181-0.218-0.354-0.326-0.526
		c-0.204-0.325-0.401-0.653-0.616-0.97c-0.073-0.108-0.178-0.207-0.291-0.271c-0.344-0.194-0.7-0.367-1.049-0.553
		c-0.117-0.063-0.201-0.055-0.297,0.049c-0.199,0.216-0.412,0.419-0.62,0.626c-0.357,0.354-0.865,0.354-1.224,0
		c-0.221-0.218-0.441-0.436-0.657-0.659c-0.064-0.066-0.12-0.081-0.203-0.038c-0.382,0.201-0.77,0.392-1.147,0.602
		c-0.099,0.055-0.186,0.15-0.249,0.246c-0.3,0.461-0.59,0.929-0.883,1.395c-0.019,0.03-0.033,0.064-0.053,0.104
		c0.261,0.19,0.518,0.376,0.788,0.572c0.069-0.111,0.13-0.22,0.203-0.32c0.064-0.088,0.13-0.182,0.215-0.245
		c0.168-0.124,0.368-0.057,0.431,0.141c0.032,0.099,0.044,0.208,0.044,0.312c0.003,1.424,0.002,2.847,0.002,4.271
		c0,0.229,0.039,0.268,0.272,0.268c0.812,0,1.624,0,2.435,0c0.195,0,0.309,0.164,0.212,0.314c-0.032,0.049-0.109,0.097-0.165,0.098
		c-0.885,0.006-1.77,0.009-2.656,0.002c-0.308-0.003-0.525-0.274-0.528-0.635c-0.004-0.473-0.001-0.946-0.001-1.42
		c0-0.048,0-0.096,0-0.163c-0.065,0-0.117,0-0.168,0c-1.167,0-2.333,0-3.5,0c-0.464,0-0.721-0.252-0.723-0.718
		C7.855,10.687,7.857,10.141,7.857,9.619z M10.57,10.627c-0.06,0-0.104,0-0.148,0c-0.343,0-0.685,0.002-1.028-0.001
		c-0.302-0.002-0.533-0.237-0.534-0.538C8.86,9.762,8.863,9.435,8.859,9.109C8.857,8.935,8.922,8.792,9.032,8.665
		C9.157,8.52,9.29,8.381,9.408,8.231c0.192-0.243,0.435-0.36,0.744-0.337c0.105,0.008,0.212,0.007,0.317,0.015
		c0.076,0.006,0.108-0.017,0.108-0.101c-0.002-0.967-0.002-1.934,0-2.9c0-0.067-0.019-0.104-0.084-0.128
		c-0.068-0.025-0.131-0.065-0.198-0.096c-0.097-0.045-0.195-0.087-0.307-0.137c0,0.068,0,0.113,0,0.158c0,0.286,0,0.571,0,0.857
		c0,0.108-0.023,0.206-0.134,0.252C9.698,5.878,9.558,5.773,9.557,5.587c-0.002-0.383-0.002-0.767,0-1.15
		c0-0.067-0.013-0.113-0.082-0.144c-0.33-0.152-0.656-0.31-0.986-0.461c-0.04-0.018-0.105-0.016-0.145,0.004
		C8.151,3.93,7.951,4.019,7.773,4.139C7.635,4.232,7.498,4.351,7.409,4.49c-0.65,1.016-1.288,2.041-1.931,3.062
		C5.38,7.71,5.376,7.866,5.468,8.025c0.134,0.233,0.268,0.466,0.403,0.699C6.097,9.111,6.325,9.498,6.55,9.886
		C6.597,9.967,6.641,9.98,6.723,9.922c0.189-0.135,0.386-0.26,0.579-0.388c0.136-0.091,0.139-0.093,0.056-0.235
		c-0.214-0.366-0.427-0.732-0.65-1.093c-0.08-0.13-0.073-0.237,0.006-0.361C6.912,7.536,7.099,7.22,7.297,6.911
		c0.138-0.216,0.268-0.44,0.434-0.633c0.183-0.213,0.486-0.127,0.52,0.152c0.04,0.321,0.03,0.65,0.028,0.975
		C8.278,7.508,8.195,7.567,8.086,7.571C7.973,7.575,7.887,7.529,7.873,7.415C7.856,7.278,7.861,7.139,7.857,7
		c-0.001-0.041,0-0.083,0-0.124C7.596,7.242,7.366,7.611,7.139,7.982c-0.015,0.024-0.013,0.074,0.002,0.1
		c0.233,0.403,0.47,0.805,0.716,1.224c0-0.061,0-0.105,0-0.148c0-0.228-0.004-0.457,0.002-0.685
		c0.004-0.168,0.096-0.255,0.239-0.244c0.126,0.01,0.189,0.097,0.189,0.266c0,0.889,0,1.779,0,2.668
		c0,0.049-0.003,0.098,0.002,0.147c0.011,0.132,0.077,0.199,0.207,0.215c0.048,0.006,0.097,0.011,0.146,0.011
		c0.604,0.001,1.208,0.001,1.811,0c0.039,0,0.077-0.006,0.117-0.009C10.57,11.222,10.57,10.934,10.57,10.627z M11.58,4.541
		c-0.18,0.084-0.337,0.16-0.496,0.228C11.013,4.8,10.99,4.844,10.99,4.919c0.002,0.959,0.001,1.917,0.002,2.876
		c0,0.028,0.007,0.056,0.015,0.117c0.164-0.264,0.307-0.5,0.457-0.733c0.139-0.216,0.28-0.434,0.518-0.557
		c0.398-0.207,0.796-0.413,1.197-0.614c0.171-0.086,0.346-0.078,0.516,0.014c0.041,0.022,0.09,0.043,0.136,0.043
		c0.416,0.003,0.832,0.002,1.248,0.001c0.014,0,0.028-0.007,0.053-0.013c-0.024-0.044-0.041-0.08-0.062-0.113
		c-0.234-0.373-0.468-0.746-0.704-1.117c-0.098-0.155-0.188-0.317-0.303-0.459c-0.23-0.283-0.583-0.378-0.886-0.55
		c-0.023-0.013-0.07,0.003-0.101,0.017c-0.311,0.144-0.618,0.295-0.931,0.434c-0.105,0.047-0.14,0.108-0.137,0.222
		c0.008,0.355,0.003,0.71,0.003,1.065c0,0.111-0.019,0.216-0.137,0.263c-0.153,0.062-0.294-0.039-0.295-0.216
		C11.578,5.255,11.58,4.913,11.58,4.541z M10.576,10.21c0-0.62,0.001-1.218-0.004-1.817c0-0.023-0.055-0.064-0.086-0.065
		c-0.163-0.006-0.326-0.008-0.489,0C9.951,8.331,9.895,8.359,9.862,8.394C9.694,8.57,9.528,8.749,9.369,8.934
		C9.324,8.987,9.284,9.063,9.282,9.129C9.273,9.434,9.276,9.74,9.279,10.045c0.001,0.108,0.063,0.163,0.171,0.164
		c0.106,0.001,0.212,0,0.318,0C10.031,10.21,10.295,10.21,10.576,10.21z M10.992,11.534c0.408,0,0.795-0.001,1.182,0.001
		c0.073,0,0.075-0.044,0.075-0.096c-0.001-0.163,0-0.326,0-0.49c0-0.104,0-0.208,0-0.322c-0.409,0-0.796-0.001-1.183,0.003
		c-0.025,0-0.07,0.044-0.071,0.069C10.991,10.971,10.992,11.243,10.992,11.534z M10.999,10.21c0.195,0,0.378,0.001,0.56,0
		c0.191-0.001,0.382-0.004,0.573-0.007c0.085-0.001,0.121-0.041,0.118-0.13c-0.006-0.179-0.001-0.358-0.003-0.537
		c0-0.024-0.01-0.048-0.019-0.089c-0.041,0.06-0.07,0.105-0.101,0.147c-0.146,0.203-0.341,0.243-0.552,0.112
		c-0.069-0.043-0.134-0.092-0.2-0.14c-0.12-0.087-0.24-0.174-0.378-0.273C10.999,9.61,10.999,9.9,10.999,10.21z M10.267,3.781
		c0.166,0.168,0.358,0.361,0.527,0.531c0.177-0.176,0.37-0.368,0.534-0.531C10.982,3.781,10.598,3.781,10.267,3.781z M15.421,6.495
		c-0.431,0-0.818,0-1.184,0c0.107,0.119,0.209,0.253,0.333,0.363c0.139,0.123,0.305,0.127,0.449,0.014
		C15.154,6.765,15.272,6.637,15.421,6.495z M9.668,3.914C9.679,3.902,9.69,3.89,9.702,3.878c-0.118-0.111-0.239-0.22-0.355-0.333
		C9.196,3.398,9.09,3.397,8.92,3.558C9.172,3.678,9.42,3.796,9.668,3.914z M12.639,3.561c-0.001-0.011-0.001-0.023-0.002-0.034
		c-0.1-0.041-0.205-0.153-0.308-0.071c-0.162,0.128-0.295,0.292-0.44,0.441c0.003,0.005,0.007,0.01,0.01,0.015
		C12.145,3.794,12.392,3.677,12.639,3.561z"/>
</g>
</svg>
