<?xml version="1.0" encoding="iso-8859-1"?>
<!-- Generator: Adobe Illustrator 18.0.0, SVG Export Plug-In . SVG Version: 6.00 Build 0)  -->
<!DOCTYPE svg PUBLIC "-//W3C//DTD SVG 1.1//EN" "http://www.w3.org/Graphics/SVG/1.1/DTD/svg11.dtd">
<svg version="1.1" id="Layer_1" xmlns="http://www.w3.org/2000/svg" xmlns:xlink="http://www.w3.org/1999/xlink" x="0px" y="0px"
	 viewBox="0 0 24 24" style="enable-background:new 0 0 24 24;" xml:space="preserve">
<g>
	<circle style="fill:#DAE1E6;" cx="12" cy="13.066" r="7.979"/>
	<g>
		<path d="M13.019,13.755h-0.408v-1.997c0-0.113-0.091-0.204-0.204-0.204c-0.113,0-0.204,0.091-0.204,0.204v1.997H6.906V9.679h1.695
			c0.113,0,0.204-0.091,0.204-0.204c0-0.113-0.091-0.204-0.204-0.204H6.702c-0.113,0-0.204,0.091-0.204,0.204v4.279H6.09
			c-0.113,0-0.204,0.091-0.204,0.204v0.408c0,0.563,0.456,1.019,1.019,1.019h5.298c0.563,0,1.019-0.456,1.019-1.019v-0.408
			C13.223,13.846,13.131,13.755,13.019,13.755z M12.815,14.366c0,0.338-0.274,0.611-0.611,0.611h-0.408v-0.204
			c0-0.113-0.091-0.204-0.204-0.204s-0.204,0.091-0.204,0.204v0.204H7.721v-0.204c0-0.113-0.091-0.204-0.204-0.204
			c-0.113,0-0.204,0.091-0.204,0.204v0.204H6.906c-0.338,0-0.611-0.274-0.611-0.611v-0.204h6.521V14.366z"/>
		<path d="M16.483,4.381h0.408c0.113,0,0.204-0.091,0.204-0.204s-0.091-0.204-0.204-0.204h-0.408c-0.338,0-0.611,0.274-0.611,0.611
			v0.204h-0.204c-0.113,0-0.204,0.091-0.204,0.204s0.091,0.204,0.204,0.204h0.204v0.611c0,0.113,0.091,0.204,0.204,0.204
			s0.204-0.091,0.204-0.204V5.196h0.204c0.113,0,0.204-0.091,0.204-0.204s-0.091-0.204-0.204-0.204h-0.204V4.585
			C16.279,4.472,16.371,4.381,16.483,4.381z"/>
		<path d="M17.502,3.158h-2.445c-0.338,0-0.611,0.274-0.611,0.611v0.408c0,0.113,0.091,0.204,0.204,0.204
			c0.113,0,0.204-0.091,0.204-0.204V3.77c0-0.113,0.091-0.204,0.204-0.204h2.445c0.113,0,0.204,0.091,0.204,0.204v2.445
			c0,0.113-0.091,0.204-0.204,0.204h-2.445c-0.113,0-0.204-0.091-0.204-0.204V4.992c0-0.113-0.091-0.204-0.204-0.204
			c-0.113,0-0.204,0.091-0.204,0.204v1.223c0,0.338,0.274,0.611,0.611,0.611h2.445c0.338,0,0.611-0.274,0.611-0.611V3.77
			C18.113,3.432,17.84,3.158,17.502,3.158z"/>
		<path d="M15.464,11.31c0,0.45,0.365,0.815,0.815,0.815s0.815-0.365,0.815-0.815s-0.365-0.815-0.815-0.815
			S15.464,10.859,15.464,11.31z M16.687,11.31c0,0.225-0.182,0.408-0.408,0.408s-0.408-0.182-0.408-0.408s0.182-0.408,0.408-0.408
			S16.687,11.084,16.687,11.31z"/>
		<path d="M17.502,9.476h-2.445c-0.338,0-0.611,0.274-0.611,0.611v2.445c0,0.338,0.274,0.611,0.611,0.611h2.445
			c0.338,0,0.611-0.274,0.611-0.611v-0.408c0-0.113-0.091-0.204-0.204-0.204s-0.204,0.091-0.204,0.204v0.408
			c0,0.113-0.091,0.204-0.204,0.204h-2.445c-0.113,0-0.204-0.091-0.204-0.204v-2.445c0-0.113,0.091-0.204,0.204-0.204h2.445
			c0.113,0,0.204,0.091,0.204,0.204v1.223c0,0.113,0.091,0.204,0.204,0.204s0.204-0.091,0.204-0.204v-1.223
			C18.113,9.749,17.84,9.476,17.502,9.476z"/>
		<path d="M10.466,5.573c0.032,0.02,0.07,0.031,0.108,0.031c0.032,0,0.063-0.008,0.092-0.022l1.223-0.611
			c0.1-0.051,0.14-0.174,0.088-0.274c-0.019-0.038-0.05-0.069-0.088-0.088l-1.223-0.611c-0.101-0.051-0.223-0.01-0.274,0.09
			c-0.014,0.028-0.022,0.059-0.022,0.091V5.4C10.37,5.47,10.406,5.536,10.466,5.573z M10.777,4.507l0.562,0.281L10.777,5.07V4.507z"
			/>
		<path d="M10.981,6.623c1.013,0,1.834-0.821,1.834-1.834s-0.821-1.834-1.834-1.834S9.147,3.776,9.147,4.789
			S9.968,6.623,10.981,6.623z M10.981,3.362c0.788,0,1.426,0.639,1.426,1.426s-0.639,1.426-1.426,1.426S9.555,5.576,9.555,4.789
			S10.193,3.362,10.981,3.362z"/>
		<path d="M13.019,7.438c0.064,0,0.125-0.03,0.163-0.082l0.611-0.815c0.067-0.09,0.049-0.218-0.041-0.285
			c-0.09-0.067-0.218-0.049-0.285,0.041l-0.611,0.815c-0.068,0.09-0.049,0.218,0.041,0.285C12.932,7.423,12.975,7.438,13.019,7.438z
			"/>
		<path d="M13.467,8.171c0.038,0.051,0.099,0.082,0.163,0.082c0.044,0,0.087-0.014,0.122-0.041l0.815-0.611
			c0.09-0.068,0.108-0.195,0.041-0.285c-0.068-0.09-0.195-0.108-0.285-0.041l-0.815,0.611C13.418,7.954,13.4,8.081,13.467,8.171
			L13.467,8.171z"/>
		<path d="M15.464,8.62c-0.02-0.111-0.126-0.184-0.237-0.165c-0.003,0-0.005,0.001-0.008,0.002L14.201,8.66
			c-0.113,0.011-0.195,0.112-0.183,0.224c0.011,0.113,0.112,0.195,0.224,0.183h0.041l1.019-0.204
			c0.111-0.02,0.184-0.126,0.165-0.237C15.465,8.625,15.465,8.622,15.464,8.62z"/>
		<path d="M6.09,8.66h2.445c0.113,0,0.204-0.091,0.204-0.204v-3.26c0-0.113-0.091-0.204-0.204-0.204H6.09
			c-0.113,0-0.204,0.091-0.204,0.204v3.26C5.887,8.569,5.978,8.66,6.09,8.66z M6.294,5.4h2.038v2.853H6.294V5.4z"/>
		<path d="M7.721,5.808H7.313c-0.113,0-0.204,0.091-0.204,0.204s0.091,0.204,0.204,0.204h0.408c0.113,0,0.204-0.091,0.204-0.204
			S7.833,5.808,7.721,5.808z"/>
		<path d="M7.721,6.623H6.906c-0.113,0-0.204,0.091-0.204,0.204c0,0.113,0.091,0.204,0.204,0.204h0.815
			c0.113,0,0.204-0.091,0.204-0.204C7.924,6.714,7.833,6.623,7.721,6.623z"/>
		<path d="M7.721,7.438H6.906c-0.113,0-0.204,0.091-0.204,0.204c0,0.113,0.091,0.204,0.204,0.204h0.815
			c0.113,0,0.204-0.091,0.204-0.204C7.924,7.529,7.833,7.438,7.721,7.438z"/>
		<path d="M12.84,8.599c-0.056-0.098-0.181-0.132-0.279-0.075s-0.132,0.181-0.075,0.279l0.899,1.555l-3.26,1.223c0,0,0,0-0.014,0
			h-0.016l-0.53,0.306L9.21,12.09c-0.094,0.054-0.205,0.069-0.31,0.041c-0.104-0.028-0.193-0.096-0.247-0.19l-0.408-0.705
			c-0.1-0.192-0.033-0.427,0.153-0.538l0.705-0.408l0.509,0.882c0.037,0.063,0.104,0.102,0.177,0.102
			c0.113,0,0.204-0.09,0.205-0.203c0-0.036-0.009-0.071-0.027-0.103L9.443,10.06L12,7.951l0.084,0.145
			c0.056,0.098,0.181,0.132,0.279,0.075c0.098-0.056,0.132-0.181,0.075-0.279L12.234,7.54c-0.03-0.052-0.082-0.087-0.141-0.098
			c-0.059-0.011-0.12,0.004-0.167,0.043L9.074,9.836l-0.868,0.501c-0.32,0.187-0.474,0.566-0.375,0.923l-0.204,0.116
			c-0.293,0.168-0.394,0.542-0.226,0.835c0.081,0.141,0.215,0.244,0.372,0.286c0.052,0.014,0.105,0.021,0.159,0.02
			c0.107,0,0.212-0.029,0.306-0.082l0.204-0.116c0.098,0.101,0.221,0.174,0.357,0.212c0.07,0.019,0.142,0.029,0.214,0.029
			c0.143,0,0.284-0.038,0.408-0.11l0.177-0.102l0.408,0.707c0.169,0.292,0.541,0.392,0.833,0.224
			c0.293-0.169,0.393-0.542,0.224-0.835l0-0.001l-0.371-0.646l3.057-1.147c0.056-0.021,0.1-0.066,0.12-0.122
			c0.02-0.056,0.015-0.118-0.014-0.169L12.84,8.599z M8.026,12.082c-0.047,0.027-0.103,0.034-0.155,0.02
			c-0.052-0.014-0.097-0.047-0.124-0.094c-0.027-0.047-0.034-0.103-0.02-0.155c0.014-0.053,0.049-0.097,0.096-0.124L8,11.627
			l0.204,0.353L8.026,12.082z M10.708,12.652c0.027,0.047,0.034,0.103,0.02,0.155c-0.015,0.052-0.049,0.096-0.096,0.122
			c-0.097,0.056-0.22,0.023-0.277-0.073l-0.408-0.707l0.338-0.194h0.016L10.708,12.652z"/>
	</g>
</g>
</svg>
