<?xml version="1.0" encoding="iso-8859-1"?>
<!-- Generator: Adobe Illustrator 18.0.0, SVG Export Plug-In . SVG Version: 6.00 Build 0)  -->
<!DOCTYPE svg PUBLIC "-//W3C//DTD SVG 1.1//EN" "http://www.w3.org/Graphics/SVG/1.1/DTD/svg11.dtd">
<svg version="1.1" id="Layer_1" xmlns="http://www.w3.org/2000/svg" xmlns:xlink="http://www.w3.org/1999/xlink" x="0px" y="0px"
	 viewBox="0 0 24 24" style="enable-background:new 0 0 24 24;" xml:space="preserve">
<g>
	<circle style="fill:#DAE1E6;" cx="12" cy="13.028" r="7.979"/>
	<path d="M10.362,8.817c0.434-0.636,1.037-0.969,1.797-1.018c0.964-0.063,1.711,0.596,1.724,1.516
		c0.009,0.642-0.583,1.082-1.132,0.827c-0.104-0.048-0.205-0.163-0.24-0.269c-0.015-0.045,0.133-0.167,0.226-0.22
		c0.198-0.111,0.273-0.281,0.176-0.489c-0.101-0.216-0.288-0.311-0.514-0.306c-0.343,0.007-0.61,0.168-0.777,0.468
		c-0.167,0.301-0.162,0.609,0.029,0.901c0.509,0.774,1.602,0.957,2.338,0.395c0.773-0.591,0.93-1.672,0.358-2.458
		c-0.789-1.084-2.512-1.369-3.613-0.607c-0.093,0.065-0.228,0.07-0.343,0.102c-0.024-0.12-0.085-0.245-0.067-0.359
		c0.148-0.948,0.684-1.574,1.598-1.871c0.838-0.272,1.642-0.62,2.368-1.125c0.225-0.156,0.413-0.364,0.626-0.538
		c0.072-0.059,0.17-0.087,0.257-0.128c0.036,0.098,0.117,0.203,0.101,0.292c-0.173,1.005-0.698,1.734-1.685,2.082
		c-0.113,0.04-0.229,0.071-0.343,0.106c0.002,0.02,0.004,0.041,0.006,0.061c0.123,0,0.257,0.032,0.368-0.005
		c1.455-0.482,2.692-1.284,3.624-2.518c0.122-0.161,0.213-0.346,0.334-0.508c0.051-0.068,0.144-0.105,0.218-0.157
		c0.052,0.081,0.143,0.158,0.151,0.243c0.06,0.601-0.08,1.163-0.374,1.686c-0.517,0.921-1.338,1.486-2.27,1.915
		c-0.116,0.053-0.233,0.104-0.361,0.16c1.824,1.351,0.664,4.367-0.977,4.845c-0.959,0.279-1.898,0.171-2.791-0.287
		c-0.072-0.037-0.141-0.079-0.239-0.134c-0.07,0.176-0.137,0.344-0.21,0.528c0.543,0.24,1.106,0.353,1.681,0.401
		c1.04,0.087,2.06-0.012,3.054-0.352c0.091-0.031,0.208,0.016,0.313,0.027c-0.019,0.103-0.008,0.224-0.06,0.305
		c-0.536,0.843-1.335,1.253-2.308,1.279c-0.488,0.013-0.981-0.092-1.468-0.167c-0.147-0.023-0.23-0.009-0.328,0.109
		c-0.649,0.775-1.429,1.355-2.455,1.508c-0.275,0.041-0.566,0.003-0.845-0.031c-0.085-0.01-0.158-0.128-0.236-0.196
		c0.072-0.066,0.133-0.164,0.218-0.192c0.822-0.271,1.526-0.717,2.095-1.371c0.021-0.024,0.037-0.051,0.076-0.105
		c-0.153-0.057-0.292-0.108-0.411-0.152c-0.232,0.257-0.431,0.527-0.679,0.742c-0.562,0.489-1.25,0.717-1.972,0.837
		c-0.359,0.06-0.726,0.083-1.091,0.099c-0.089,0.004-0.181-0.087-0.272-0.134c0.071-0.083,0.127-0.21,0.216-0.242
		c0.713-0.262,1.397-0.576,2.003-1.04c0.82-0.628,1.403-1.413,1.605-2.45c0.052-0.266,0.055-0.509-0.12-0.737
		C9.675,10,9.641,9.886,9.564,9.73c-0.042,0.119-0.069,0.195-0.096,0.272c-0.26,0.756-0.572,1.486-1.046,2.136
		c-0.276,0.379-0.595,0.713-1.04,0.894c-0.077,0.031-0.178,0.005-0.268,0.005c0.006-0.096-0.023-0.217,0.024-0.284
		c0.573-0.827,0.809-1.761,0.92-2.743c0.041-0.362,0.109-0.723,0.199-1.076c0.225-0.891,0.838-1.463,1.614-1.886
		c0.178-0.097,0.281-0.005,0.296,0.23c0.031,0.508,0.07,1.015,0.106,1.523C10.302,8.806,10.332,8.811,10.362,8.817z M10.731,7.07
		c1.24-0.588,2.37-0.305,3.074,0.118C14.52,7.617,15,8.209,15.051,9.078c0.053,0.92-0.535,1.787-1.415,2.09
		c-0.846,0.291-1.745-0.009-2.256-0.753c-0.474-0.69-0.178-1.623,0.613-1.897c0.39-0.135,0.781-0.126,1.093,0.182
		c0.292,0.289,0.351,0.639,0.136,1.027c0.238-0.094,0.314-0.206,0.324-0.447c0.018-0.448-0.259-0.889-0.674-1.07
		c-0.826-0.36-2.129,0.183-2.319,1.041c-0.017,0.077-0.107,0.186-0.171,0.193c-0.068,0.007-0.188-0.076-0.214-0.146
		c-0.104-0.28-0.201-0.566-0.26-0.858C9.845,8.127,9.83,7.807,9.793,7.476C8.973,7.954,8.605,8.677,8.496,9.564
		c-0.096,0.774-0.179,1.551-0.478,2.283c-0.026,0.063-0.045,0.129-0.067,0.194c0.026,0.013,0.051,0.026,0.077,0.039
		c0.235-0.413,0.508-0.81,0.697-1.243c0.251-0.579,0.434-1.188,0.655-1.78c0.029-0.079,0.117-0.136,0.178-0.203
		C9.623,8.916,9.712,8.967,9.75,9.043C9.821,9.187,9.855,9.35,9.917,9.499c0.463,1.108,1.221,1.863,2.452,2.062
		c1.305,0.21,2.3-0.264,2.835-1.376c0.105-0.218,0.185-0.452,0.241-0.688c0.227-0.972-0.094-1.973-0.952-2.389
		c-0.065-0.032-0.147-0.146-0.133-0.196c0.021-0.075,0.112-0.148,0.19-0.187c0.493-0.246,1.009-0.452,1.482-0.73
		c0.598-0.352,1.073-0.844,1.364-1.486c0.081-0.18,0.131-0.373,0.196-0.561c-0.101,0.036-0.154,0.094-0.205,0.154
		c-0.937,1.103-2.099,1.882-3.453,2.378c-0.162,0.06-0.345,0.081-0.519,0.085c-0.297,0.006-0.595-0.021-0.892-0.023
		c-0.13-0.001-0.295,0.041-0.316-0.129c-0.011-0.084,0.087-0.227,0.172-0.27c0.368-0.185,0.744-0.359,1.129-0.507
		c0.575-0.221,0.987-0.593,1.204-1.181c-0.763,0.593-1.654,0.918-2.541,1.252c-0.249,0.094-0.493,0.213-0.722,0.35
		C11.079,6.277,10.848,6.611,10.731,7.07z M15.16,12.487c-0.131,0.026-0.199,0.038-0.267,0.053
		c-1.426,0.309-2.837,0.319-4.218-0.221c-0.429-0.168-0.428-0.17-0.233-0.58c0.24-0.506,0.222-0.602-0.192-0.933
		c-0.306,1.582-1.32,2.601-2.662,3.361c0.893-0.212,1.689-0.557,2.126-1.431c0.073-0.146,0.172-0.173,0.319-0.117
		c0.228,0.086,0.46,0.16,0.689,0.242c0.275,0.098,0.303,0.184,0.125,0.426c-0.392,0.531-0.887,0.946-1.46,1.269
		c-0.048,0.027-0.093,0.061-0.14,0.091c0.207-0.019,0.396-0.066,0.574-0.139c0.674-0.277,1.191-0.754,1.624-1.323
		c0.138-0.181,0.264-0.215,0.473-0.146c0.514,0.17,1.046,0.233,1.587,0.19C14.118,13.18,14.669,12.981,15.16,12.487z"/>
</g>
</svg>
