<?xml version="1.0" encoding="utf-8"?>
<!-- Generator: Adobe Illustrator 18.0.0, SVG Export Plug-In . SVG Version: 6.00 Build 0)  -->
<!DOCTYPE svg PUBLIC "-//W3C//DTD SVG 1.1//EN" "http://www.w3.org/Graphics/SVG/1.1/DTD/svg11.dtd">
<svg version="1.1" id="Layer_1" xmlns="http://www.w3.org/2000/svg" xmlns:xlink="http://www.w3.org/1999/xlink" x="0px" y="0px"
	 viewBox="0 0 47 47" enable-background="new 0 0 47 47" xml:space="preserve">
<path fill="#141414" d="M42.9,24.9h-2.2l-6.4-6.4c1-0.8,1.6-2,1.6-3.3c0-1.8-1.2-3.3-2.8-3.9v-0.5c1.6-0.6,2.8-2.1,2.8-3.9
	c0-2.3-1.9-4.1-4.1-4.1h-21C10.2,1.2,8.7,0,6.9,0C4.6,0,2.8,1.9,2.8,4.1V39C1.2,39.5,0,41.1,0,42.9v2.8C0,46.4,0.6,47,1.4,47h11
	c0.8,0,1.4-0.6,1.4-1.4v-2.8c0-1.8-1.2-3.3-2.8-3.9V11h19.4v1.4c0,0.8,0.6,1.4,1.4,1.4c0.8,0,1.4,0.6,1.4,1.4c0,0.8-0.6,1.4-1.4,1.4
	c-0.8,0-1.4-0.6-1.4-1.4c0-0.8-0.6-1.4-1.4-1.4c-0.8,0-1.4,0.6-1.4,1.4c0,1.3,0.6,2.5,1.7,3.3l-6.4,6.4h-2.3c-2.3,0-4.1,1.9-4.1,4.1
	v13.9c0,2.3,1.9,4.1,4.1,4.1h22.2c2.3,0,4.1-1.9,4.1-4.1V29C47,26.7,45.1,24.9,42.9,24.9z M5.5,4.1c0-0.8,0.6-1.4,1.4-1.4
	c0.8,0,1.4,0.6,1.4,1.4v34.6H5.5V4.1z M11,44.2H2.8v-1.4c0-0.8,0.6-1.4,1.4-1.4h5.5c0.8,0,1.4,0.6,1.4,1.4V44.2z M27.9,8.3H11V5.5
	h16.9c-0.2,0.4-0.2,0.9-0.2,1.4C27.6,7.4,27.7,7.8,27.9,8.3z M31.8,8.3c-0.8,0-1.4-0.6-1.4-1.4c0-0.8,0.6-1.4,1.4-1.4
	c0.8,0,1.4,0.6,1.4,1.4C33.1,7.6,32.5,8.3,31.8,8.3z M31.8,19.9l5,5h-10L31.8,19.9z M19.3,29c0-0.8,0.6-1.4,1.4-1.4h18.1v2.8H19.3
	V29z M44.2,42.9c0,0.8-0.6,1.4-1.4,1.4H20.7c-0.8,0-1.4-0.6-1.4-1.4v-9.7h25V42.9z M44.2,30.4h-2.8v-2.8h1.4c0.8,0,1.4,0.6,1.4,1.4
	V30.4z"/>
</svg>
