<?xml version="1.0" encoding="utf-8"?>
<!-- Generator: Adobe Illustrator 18.0.0, SVG Export Plug-In . SVG Version: 6.00 Build 0)  -->
<!DOCTYPE svg PUBLIC "-//W3C//DTD SVG 1.1//EN" "http://www.w3.org/Graphics/SVG/1.1/DTD/svg11.dtd">
<svg version="1.1" id="Layer_1" xmlns="http://www.w3.org/2000/svg" xmlns:xlink="http://www.w3.org/1999/xlink" x="0px" y="0px"
	 viewBox="0 0 48 48" enable-background="new 0 0 48 48" xml:space="preserve">
<g>
	<g>
		<path fill="#141414" d="M38.8,37.3c-0.5,0-0.9,0.4-0.9,0.9v6.9c0,0.5-0.4,0.9-0.9,0.9H2.8c-0.5,0-0.9-0.4-0.9-0.9V2.8
			c0-0.5,0.4-0.9,0.9-0.9h34.1c0.5,0,0.9,0.4,0.9,0.9V13c0,0.5,0.4,0.9,0.9,0.9s0.9-0.4,0.9-0.9V2.8c0-1.6-1.3-2.8-2.8-2.8H2.8
			C1.3,0,0,1.3,0,2.8v42.4C0,46.7,1.3,48,2.8,48h34.1c1.6,0,2.8-1.3,2.8-2.8v-6.9C39.8,37.8,39.3,37.3,38.8,37.3z M19.9,5.1
			c-4.8,0-8.6,3.9-8.6,8.6c0,2.5,1,4.7,2.7,6.3c0,0,0.1,0.1,0.1,0.1c1.5,1.4,3.6,2.3,5.8,2.3s4.3-0.9,5.8-2.3c0,0,0.1-0.1,0.1-0.1
			c1.7-1.6,2.7-3.8,2.7-6.3C28.5,8.9,24.6,5.1,19.9,5.1z M19.9,20.4c-1.5,0-2.9-0.5-4.1-1.4c0.8-1.5,2.4-2.4,4.1-2.4
			c1.7,0,3.3,0.9,4.1,2.4C22.8,19.9,21.4,20.4,19.9,20.4z M18.4,13.3v-0.6c0-0.8,0.7-1.5,1.5-1.5c0.8,0,1.5,0.7,1.5,1.5v0.6
			c0,0.8-0.7,1.5-1.5,1.5C19,14.8,18.4,14.1,18.4,13.3z M25.3,17.7c-0.7-1-1.6-1.8-2.8-2.3c0.4-0.6,0.7-1.3,0.7-2.1v-0.6
			c0-1.9-1.5-3.4-3.4-3.4c-1.9,0-3.4,1.5-3.4,3.4v0.6c0,0.8,0.3,1.5,0.7,2.1c-1.1,0.5-2.1,1.3-2.8,2.3c-0.8-1.1-1.3-2.5-1.3-4
			c0-3.7,3-6.8,6.8-6.8s6.8,3,6.8,6.8C26.6,15.2,26.1,16.6,25.3,17.7z M24.9,41.1h-5.1c-0.5,0-0.9,0.4-0.9,0.9s0.4,0.9,0.9,0.9h5.1
			c0.5,0,0.9-0.4,0.9-0.9S25.5,41.1,24.9,41.1z M24.9,35.8H11.6c-0.5,0-0.9,0.4-0.9,0.9s0.4,0.9,0.9,0.9h13.3c0.5,0,0.9-0.4,0.9-0.9
			S25.5,35.8,24.9,35.8z M24.9,30.6H11.6c-0.5,0-0.9,0.4-0.9,0.9s0.4,0.9,0.9,0.9h13.3c0.5,0,0.9-0.4,0.9-0.9S25.5,30.6,24.9,30.6z
			 M8.3,25.6c-0.2-0.2-0.4-0.3-0.7-0.3c-0.2,0-0.5,0.1-0.7,0.3c-0.2,0.2-0.3,0.4-0.3,0.7s0.1,0.5,0.3,0.7c0.2,0.2,0.4,0.3,0.7,0.3
			c0.2,0,0.5-0.1,0.7-0.3c0.2-0.2,0.3-0.4,0.3-0.7S8.5,25.8,8.3,25.6z M8.3,30.8c-0.2-0.2-0.4-0.3-0.7-0.3c-0.2,0-0.5,0.1-0.7,0.3
			c-0.2,0.2-0.3,0.4-0.3,0.7S6.8,32,7,32.2c0.2,0.2,0.4,0.3,0.7,0.3c0.2,0,0.5-0.1,0.7-0.3c0.2-0.2,0.3-0.4,0.3-0.7S8.5,31,8.3,30.8
			z M7.6,35.8c-0.2,0-0.5,0.1-0.7,0.3c-0.2,0.2-0.3,0.4-0.3,0.7s0.1,0.5,0.3,0.7c0.2,0.2,0.4,0.3,0.7,0.3c0.2,0,0.5-0.1,0.7-0.3
			c0.2-0.2,0.3-0.4,0.3-0.7s-0.1-0.5-0.3-0.7C8.1,35.9,7.9,35.8,7.6,35.8z M24.9,25.3H11.6c-0.5,0-0.9,0.4-0.9,0.9s0.4,0.9,0.9,0.9
			h13.3c0.5,0,0.9-0.4,0.9-0.9S25.5,25.3,24.9,25.3z M46,12.2c-0.9-0.5-2-0.7-3-0.4c-1,0.3-1.9,0.9-2.4,1.8L28.9,34.1
			c-0.1,0.1-0.1,0.2-0.1,0.4l-0.8,7.4c0,0.4,0.1,0.7,0.5,0.9c0.1,0.1,0.3,0.1,0.5,0.1c0.2,0,0.4-0.1,0.6-0.2l6-4.4
			c0.1-0.1,0.2-0.2,0.3-0.3l11.8-20.4C48.6,15.7,47.9,13.3,46,12.2z M30,40l0.4-3.9l2.7,1.6L30,40z M34.5,36.3l-3.6-2.1l9.5-16.4
			l3.6,2.1L34.5,36.3z M45.8,16.7l-0.9,1.6l-3.6-2.1l0.9-1.6c0.3-0.5,0.7-0.8,1.3-1c0.5-0.1,1.1-0.1,1.6,0.2c0.5,0.3,0.8,0.7,1,1.3
			C46.2,15.6,46.1,16.2,45.8,16.7z"/>
	</g>
</g>
</svg>
