<?xml version="1.0" encoding="utf-8"?>
<!-- Generator: Adobe Illustrator 18.0.0, SVG Export Plug-In . SVG Version: 6.00 Build 0)  -->
<!DOCTYPE svg PUBLIC "-//W3C//DTD SVG 1.1//EN" "http://www.w3.org/Graphics/SVG/1.1/DTD/svg11.dtd">
<svg version="1.1" id="Layer_1" xmlns="http://www.w3.org/2000/svg" xmlns:xlink="http://www.w3.org/1999/xlink" x="0px" y="0px"
	 viewBox="0 0 19 19" enable-background="new 0 0 19 19" xml:space="preserve">
<path fill="#FFFFFF" d="M14.7,18.3c-0.6,0-1.2-0.1-1.7-0.3c-0.5-0.2-1-0.5-1.4-0.9c-0.4-0.4-0.7-0.9-0.9-1.4
	c-0.2-0.5-0.3-1.1-0.3-1.7c0-0.6,0.1-1.1,0.3-1.7c0.2-0.5,0.5-1,0.9-1.4c0.4-0.4,0.9-0.7,1.4-0.9c0.5-0.2,1.1-0.3,1.7-0.3
	c0.6,0,1.2,0.1,1.7,0.3c0.5,0.2,1,0.5,1.4,0.9c0.4,0.4,0.7,0.8,0.9,1.4c0.2,0.5,0.3,1.1,0.3,1.7s-0.1,1.1-0.3,1.7
	c-0.2,0.5-0.5,1-0.9,1.4c-0.4,0.4-0.8,0.7-1.4,0.9C15.8,18.2,15.3,18.3,14.7,18.3L14.7,18.3z M16.8,13.3h-1.6v-1.5
	c0-0.2-0.1-0.4-0.2-0.5c-0.1-0.1-0.3-0.2-0.5-0.2c-0.2,0-0.4,0.1-0.5,0.2c-0.1,0.1-0.2,0.3-0.2,0.5v1.5h-1.4c-0.2,0-0.4,0.1-0.5,0.2
	c-0.1,0.1-0.2,0.3-0.2,0.5c0,0.2,0.1,0.3,0.2,0.4c0.1,0.1,0.3,0.1,0.5,0.1h1.4v1.5c0,0.2,0.1,0.4,0.2,0.5c0.1,0.1,0.3,0.2,0.5,0.2
	c0.2,0,0.4-0.1,0.5-0.2c0.1-0.1,0.2-0.3,0.2-0.5v-1.5h1.6v0c0.2,0,0.4-0.1,0.5-0.2c0.1-0.1,0.2-0.3,0.2-0.5s-0.1-0.4-0.2-0.5
	S17,13.3,16.8,13.3L16.8,13.3z M11.6,8c-0.1,0.2-0.1,0.4-0.2,0.6c-0.1,0.2-0.1,0.3-0.2,0.5c-0.1,0.2-0.2,0.3-0.3,0.4
	c-0.1,0.1-0.2,0.2-0.3,0.3c0,0.1-0.1,0.2-0.1,0.3c0,0.1-0.1,0.2-0.1,0.4c0,0.1-0.1,0.3-0.2,0.4c-0.3,0.4-0.6,0.8-0.7,1.2
	c-0.2,0.4-0.3,0.8-0.3,1.1c-0.1,0.4-0.1,0.7-0.1,1.1c0,0.4,0.1,0.7,0.2,1c0.1,0.3,0.1,0.5,0.3,0.8c0.1,0.3,0.3,0.6,0.5,0.8
	c0.2,0.3,0.5,0.6,0.8,0.8c0.3,0.3,0.8,0.5,1.3,0.8c-0.3,0.1-0.7,0.1-1.2,0.2c-0.4,0-0.8,0.1-1.4,0.1C9,19,8.3,19,7.6,19
	c-0.4,0-0.8,0-1.3,0c-0.5,0-1-0.1-1.5-0.1c-0.5,0-1-0.1-1.5-0.1c-0.5-0.1-1-0.1-1.4-0.2c-0.4-0.1-0.8-0.1-1.1-0.2
	c-0.3-0.1-0.5-0.1-0.5-0.2C0.2,18,0.1,17.7,0,17.2c-0.1-0.5,0-1.2,0.1-2c0.1-0.5,0.3-0.8,0.6-1.1c0.3-0.2,0.7-0.4,1.1-0.6
	c0.4-0.1,0.8-0.3,1.3-0.4c0.4-0.1,0.8-0.3,1.2-0.5c0.3-0.2,0.5-0.3,0.6-0.5C4.9,12,5,11.9,5.1,11.7c0.1-0.2,0.1-0.3,0.1-0.5
	c0-0.2,0-0.4,0-0.5c0-0.3-0.1-0.5-0.3-0.7C4.7,9.8,4.5,9.7,4.3,9.5C4.2,9.4,4.1,9.3,4,9.1C3.9,9,3.8,8.8,3.8,8.6
	C3.7,8.5,3.7,8.3,3.6,8C3.5,8,3.4,8,3.3,7.9C3.3,7.9,3.2,7.8,3.1,7.7C3,7.5,2.9,7.4,2.9,7.2C2.8,6.9,2.8,6.7,2.8,6.6
	c0-0.2,0.1-0.3,0.1-0.5C3,5.9,3.1,5.8,3.2,5.7c0-0.5,0-1,0.1-1.4C3.3,3.9,3.4,3.4,3.5,3c0.1-0.5,0.3-0.9,0.6-1.2
	c0.3-0.4,0.5-0.6,0.8-0.9c0.3-0.2,0.6-0.4,0.9-0.5c0.3-0.1,0.6-0.2,0.9-0.3C7,0,7.3,0,7.6,0C8,0,8.3,0,8.7,0.1
	C9,0.2,9.3,0.3,9.6,0.5c0.3,0.1,0.5,0.3,0.8,0.5c0.2,0.2,0.4,0.4,0.6,0.5c0.3,0.4,0.6,0.9,0.7,1.3c0.1,0.5,0.3,1,0.3,1.4
	c0.1,0.5,0.1,1,0.1,1.5c0.1,0.1,0.2,0.2,0.2,0.3c0.1,0.1,0.1,0.2,0.1,0.3c0,0.1,0,0.3,0,0.5c0,0.3-0.1,0.5-0.2,0.6
	c-0.1,0.2-0.2,0.3-0.3,0.4C11.8,7.9,11.7,8,11.6,8L11.6,8z"/>
</svg>
