<?xml version="1.0" encoding="utf-8"?>
<!-- Generator: Adobe Illustrator 18.0.0, SVG Export Plug-In . SVG Version: 6.00 Build 0)  -->
<!DOCTYPE svg PUBLIC "-//W3C//DTD SVG 1.1 Tiny//EN" "http://www.w3.org/Graphics/SVG/1.1/DTD/svg11-tiny.dtd">
<svg version="1.1" baseProfile="tiny" id="Layer_1" xmlns="http://www.w3.org/2000/svg" xmlns:xlink="http://www.w3.org/1999/xlink"
	 x="0px" y="0px" viewBox="0 0 23.9 22.2" xml:space="preserve">
<path d="M22,2.2c-3.6,0-10.1,0-11.2,0L9.2,0.5C8.9,0.2,8.5,0,8,0H4.6C3.6,0,2.7,0.9,2.7,1.9v2.8H1.9C0.9,4.7,0,5.6,0,6.7v13.5
	c0,1.1,0.9,1.9,1.9,1.9h16.4c1.1,0,1.9-0.9,1.9-1.9v-0.8H22c1.1,0,1.9-0.9,1.9-1.9V4.1C23.9,3,23,2.2,22,2.2z M18.3,6.9H8.1L6.6,5.3
	C6.2,4.9,5.8,4.7,5.3,4.7H4.6V1.9c0,0,0,0,0,0h3.3l1.6,1.7c0.3,0.3,0.7,0.5,1.1,0.5H22c0,0,0,0,0,0v13.4c0,0,0,0,0,0h-1.7V8.9
	C20.3,7.8,19.4,6.9,18.3,6.9z M8,8.8h10.4c0,0,0,0,0,0v11.4c0,0,0,0,0,0H1.9c0,0,0,0,0,0V6.7c0,0,0,0,0,0h3.3l1.6,1.7
	C7.1,8.6,7.5,8.8,8,8.8z"/>
</svg>
