<?xml version="1.0" encoding="utf-8"?>
<!-- Generator: Adobe Illustrator 18.0.0, SVG Export Plug-In . SVG Version: 6.00 Build 0)  -->
<!DOCTYPE svg PUBLIC "-//W3C//DTD SVG 1.1//EN" "http://www.w3.org/Graphics/SVG/1.1/DTD/svg11.dtd">
<svg version="1.1" id="Layer_1" xmlns="http://www.w3.org/2000/svg" xmlns:xlink="http://www.w3.org/1999/xlink" x="0px" y="0px"
	 viewBox="0 0 678.1 133.3" enable-background="new 0 0 678.1 133.3" xml:space="preserve">
<path fill="#DEDEE2" d="M507.2,556.9H404.9c-6.6,0-12-5.4-12-12V442.7c0-6.6,5.4-12,12-12h102.3c6.6,0,12,5.4,12,12v102.3
	C519.2,551.5,513.8,556.9,507.2,556.9z"/>
<path fill="#DEDEE2" d="M666.1,556.9H563.8c-6.6,0-12-5.4-12-12V442.7c0-6.6,5.4-12,12-12h102.3c6.6,0,12,5.4,12,12v102.3
	C678.1,551.5,672.7,556.9,666.1,556.9z"/>
<path fill="#FFFFFF" d="M507.2,548.9H404.9c-6.6,0-12-5.4-12-12V434.7c0-6.6,5.4-12,12-12h102.3c6.6,0,12,5.4,12,12v102.3
	C519.2,543.5,513.8,548.9,507.2,548.9z"/>
<path fill="#FFFFFF" d="M666.1,548.9H563.8c-6.6,0-12-5.4-12-12V434.7c0-6.6,5.4-12,12-12h102.3c6.6,0,12,5.4,12,12v102.3
	C678.1,543.5,672.7,548.9,666.1,548.9z"/>
<g>
	<circle fill="#FF5654" cx="27.5" cy="63.7" r="27.5"/>
	<circle fill="#FFB94E" cx="123" cy="63.7" r="27.5"/>
	<circle fill="#1BC858" cx="218.6" cy="63.7" r="27.5"/>
	<path fill="#DEDEE2" d="M507.2,133.3H404.9c-6.6,0-12-5.4-12-12V19c0-6.6,5.4-12,12-12h102.3c6.6,0,12,5.4,12,12v102.3
		C519.2,127.9,513.8,133.3,507.2,133.3z"/>
	<path fill="#DEDEE2" d="M666.1,133.3H563.8c-6.6,0-12-5.4-12-12V19c0-6.6,5.4-12,12-12h102.3c6.6,0,12,5.4,12,12v102.3
		C678.1,127.9,672.7,133.3,666.1,133.3z"/>
	<path fill="#FFFFFF" d="M507.2,126.3H404.9c-6.6,0-12-5.4-12-12V12c0-6.6,5.4-12,12-12h102.3c6.6,0,12,5.4,12,12v102.3
		C519.2,120.9,513.8,126.3,507.2,126.3z"/>
	<path fill="#F2F2F2" d="M666.1,126.3H563.8c-6.6,0-12-5.4-12-12V12c0-6.6,5.4-12,12-12h102.3c6.6,0,12,5.4,12,12v102.3
		C678.1,120.9,672.7,126.3,666.1,126.3z"/>
	<g>
		<g>
			<path fill="#5B5B5B" d="M445.7,63.7L466.4,43c0.6-0.6,0.9-1.3,0.9-2.1c0-0.8-0.3-1.6-0.9-2.1l-1.8-1.8c-0.6-0.6-1.3-0.9-2.1-0.9
				s-1.6,0.3-2.1,0.9l-24.7,24.7c-0.6,0.6-0.9,1.3-0.9,2.1c0,0.8,0.3,1.6,0.9,2.2l24.6,24.6c0.6,0.6,1.3,0.9,2.1,0.9
				c0.8,0,1.6-0.3,2.1-0.9l1.8-1.8c1.2-1.2,1.2-3.1,0-4.3L445.7,63.7z"/>
		</g>
	</g>
	<g>
		<g>
			<path fill="#848484" d="M620.3,63.7l-20.7,20.7c-0.6,0.6-0.9,1.3-0.9,2.1c0,0.8,0.3,1.6,0.9,2.1l1.8,1.8c0.6,0.6,1.3,0.9,2.1,0.9
				s1.6-0.3,2.1-0.9l24.7-24.7c0.6-0.6,0.9-1.3,0.9-2.1c0-0.8-0.3-1.6-0.9-2.2l-24.6-24.6c-0.6-0.6-1.3-0.9-2.1-0.9
				c-0.8,0-1.6,0.3-2.1,0.9l-1.8,1.8c-1.2,1.2-1.2,3.1,0,4.3L620.3,63.7z"/>
		</g>
	</g>
</g>
<g>
	<g>
		<path fill="#5B5B5B" d="M440.6,519.1h33.2c4.6,0,8.3-3.7,8.3-8.3v-26.9c0-4.6-3.7-8.3-8.3-8.3h-5.4c-0.9,0-1.6,0.7-1.6,1.6
			c0,0.9,0.7,1.6,1.6,1.6h5.4c2.8,0,5,2.3,5,5v26.8c0,2.8-2.3,5-5,5h-33.2c-2.8,0-5-2.3-5-5v-26.9c0-2.8,2.3-5,5-5h5.4
			c0.9,0,1.6-0.7,1.6-1.6s-0.7-1.6-1.6-1.6h-5.4c-4.6,0-8.3,3.7-8.3,8.3v26.9C432.2,515.3,436,519.1,440.6,519.1z"/>
		<path fill="#5B5B5B" d="M469.6,467.5c0.3-0.3,0.5-0.7,0.5-1.2s-0.2-0.8-0.5-1.2l-11.2-11.2c-0.6-0.6-1.7-0.6-2.3,0l-11.2,11.2
			c-0.6,0.6-0.6,1.7,0,2.3c0.6,0.6,1.7,0.6,2.3,0l8.4-8.4v30.8c0,0.9,0.7,1.6,1.6,1.6s1.6-0.7,1.6-1.6V459l8.4,8.4
			C467.9,468.1,468.9,468.1,469.6,467.5z"/>
	</g>
</g>
<g>
	<g>
		<path fill="#5B5B5B" d="M626.9,467.8h-34c-3.3,0-6,2.7-6,6v34c0,3.3,2.7,6,6,6h34c3.3,0,6-2.7,6-6v-34
			C632.9,470.5,630.3,467.8,626.9,467.8z M628.9,507.8c0,1.1-0.9,2-2,2h-34c-1.1,0-2-0.9-2-2v-34c0-1.1,0.9-2,2-2h34
			c1.1,0,2,0.9,2,2V507.8z"/>
	</g>
</g>
<g>
	<g>
		<path fill="#5B5B5B" d="M636.9,457.8h-36c-3.3,0-6,2.7-6,6c0,1.1,0.9,2,2,2c1.1,0,2-0.9,2-2s0.9-2,2-2h36c1.1,0,2,0.9,2,2v36
			c0,1.1-0.9,2-2,2c-1.1,0-2,0.9-2,2s0.9,2,2,2c3.3,0,6-2.7,6-6v-36C642.9,460.5,640.3,457.8,636.9,457.8z"/>
	</g>
</g>
</svg>
