<?xml version="1.0" encoding="utf-8"?>
<!-- Generator: Adobe Illustrator 18.0.0, SVG Export Plug-In . SVG Version: 6.00 Build 0)  -->
<!DOCTYPE svg PUBLIC "-//W3C//DTD SVG 1.1//EN" "http://www.w3.org/Graphics/SVG/1.1/DTD/svg11.dtd">
<svg version="1.1" id="Capa_1" xmlns="http://www.w3.org/2000/svg" xmlns:xlink="http://www.w3.org/1999/xlink" x="0px" y="0px"
	 viewBox="0 0 500 500" enable-background="new 0 0 500 500" xml:space="preserve">
<g>
	<g>
		<g>
			<g>
				<g>
					<path fill="#6B6B6B" d="M250,6C115.5,6,6,115.5,6,250s109.5,244,244,244c134.6,0,244-109.5,244-244S384.6,6,250,6z M250,472.8
						c-122.8,0-222.8-99.9-222.8-222.8S127.2,27.2,250,27.2S472.8,127.1,472.8,250S372.8,472.8,250,472.8z"/>
				</g>
				<g>
					<path fill="#6B6B6B" d="M250,498C113.3,498,2,386.7,2,250C2,113.3,113.3,2,250,2c136.7,0,248,111.3,248,248
						C498,386.7,386.7,498,250,498z M250,10C117.7,10,10,117.7,10,250c0,132.3,107.7,240,240,240c132.3,0,240-107.7,240-240
						C490,117.7,382.3,10,250,10z M250,476.8C124.9,476.8,23.2,375.1,23.2,250S124.9,23.2,250,23.2S476.8,124.9,476.8,250
						S375.1,476.8,250,476.8z M250,31.2C129.4,31.2,31.2,129.4,31.2,250S129.4,468.8,250,468.8S468.8,370.6,468.8,250
						S370.6,31.2,250,31.2z"/>
				</g>
			</g>
			<g>
				<g>
					<path fill="#6B6B6B" d="M195.7,206.5c0-18-14.6-32.6-32.6-32.6s-32.6,14.6-32.6,32.6s14.6,32.6,32.6,32.6
						S195.7,224.5,195.7,206.5z M152.2,206.5c0-6,4.9-10.9,10.9-10.9s10.9,4.9,10.9,10.9s-4.9,10.9-10.9,10.9
						C157.1,217.4,152.2,212.5,152.2,206.5z"/>
					<path fill="#6B6B6B" d="M163.1,239.6c-18.3,0-33.1-14.8-33.1-33.1s14.8-33.1,33.1-33.1s33.1,14.8,33.1,33.1
						S181.4,239.6,163.1,239.6z M163.1,174.4c-17.7,0-32.1,14.4-32.1,32.1s14.4,32.1,32.1,32.1s32.1-14.4,32.1-32.1
						S180.8,174.4,163.1,174.4z M163.1,217.9c-6.3,0-11.4-5.1-11.4-11.4s5.1-11.4,11.4-11.4s11.4,5.1,11.4,11.4
						S169.4,217.9,163.1,217.9z M163.1,196.1c-5.7,0-10.4,4.7-10.4,10.4s4.7,10.4,10.4,10.4s10.4-4.7,10.4-10.4
						S168.8,196.1,163.1,196.1z"/>
				</g>
			</g>
			<g>
				<g>
					<path fill="#6B6B6B" d="M337,173.9c-18,0-32.6,14.6-32.6,32.6s14.6,32.6,32.6,32.6s32.6-14.6,32.6-32.6S354.9,173.9,337,173.9z
						 M337,217.4c-6,0-10.9-4.9-10.9-10.9s4.9-10.9,10.9-10.9s10.9,4.9,10.9,10.9C347.8,212.5,343,217.4,337,217.4z"/>
					<path fill="#6B6B6B" d="M337,239.6c-18.3,0-33.1-14.8-33.1-33.1s14.8-33.1,33.1-33.1s33.1,14.8,33.1,33.1
						S355.3,239.6,337,239.6z M337,174.4c-17.7,0-32.1,14.4-32.1,32.1s14.4,32.1,32.1,32.1s32.1-14.4,32.1-32.1
						S354.7,174.4,337,174.4z M337,217.9c-6.3,0-11.4-5.1-11.4-11.4s5.1-11.4,11.4-11.4s11.4,5.1,11.4,11.4
						C348.3,212.8,343.2,217.9,337,217.9z M337,196.1c-5.7,0-10.4,4.7-10.4,10.4s4.7,10.4,10.4,10.4c5.6,0,10.3-4.7,10.4-10.4
						C347.4,200.8,342.7,196.1,337,196.1z"/>
				</g>
			</g>
			<g>
				<g>
					<path fill="#6B6B6B" d="M250,304.3c-40.5,0-79.1,17.2-105.9,47.1c-4,4.5-3.6,11.3,0.8,15.3c4.5,4,11.3,3.6,15.3-0.8
						c22.7-25.3,55.4-39.9,89.7-39.9s67.1,14.5,89.7,39.9c2.1,2.4,5.1,3.6,8.1,3.6c2.6,0,5.2-0.9,7.3-2.8c4.5-4,4.8-10.9,0.8-15.3
						C329.1,321.5,290.5,304.3,250,304.3z"/>
					<path fill="#6B6B6B" d="M347.7,370c-3.3,0-6.4-1.4-8.5-3.8c-22.5-25.2-55-39.7-89.3-39.7c-34.1,0-66.7,14.5-89.3,39.7
						c-2.2,2.4-5.2,3.7-8.4,3.7c-2.8,0-5.5-1-7.6-2.9c-4.6-4.2-5-11.4-0.8-16c26.9-30,65.7-47.3,106.3-47.3
						c40.7,0,79.3,17.2,106.2,47.3c2,2.2,3.1,5.2,2.9,8.2c-0.2,3-1.5,5.8-3.8,7.8C353.2,369,350.5,370,347.7,370z M249.9,325.5
						c34.6,0,67.4,14.6,90.1,40.1c1.9,2.2,4.7,3.4,7.7,3.4c2.6,0,5.1-0.9,7-2.7c2.1-1.8,3.3-4.4,3.4-7.1c0.1-2.8-0.8-5.4-2.7-7.5
						c-26.6-29.8-65.1-46.9-105.4-46.9c-40.3,0-78.8,17.1-105.5,46.9c-3.8,4.2-3.4,10.8,0.8,14.6c1.9,1.7,4.4,2.6,6.9,2.6
						c2.9,0,5.7-1.2,7.7-3.4C182.7,340.1,215.5,325.5,249.9,325.5z"/>
				</g>
			</g>
		</g>
	</g>
</g>
</svg>
