<?xml version="1.0" encoding="utf-8"?>
<!-- Generator: Adobe Illustrator 18.0.0, SVG Export Plug-In . SVG Version: 6.00 Build 0)  -->
<!DOCTYPE svg PUBLIC "-//W3C//DTD SVG 1.1//EN" "http://www.w3.org/Graphics/SVG/1.1/DTD/svg11.dtd">
<svg version="1.1" id="Layer_1" xmlns="http://www.w3.org/2000/svg" xmlns:xlink="http://www.w3.org/1999/xlink" x="0px" y="0px"
	 viewBox="0 0 174 172.6" enable-background="new 0 0 174 172.6" xml:space="preserve">
<g>
	<path fill="#CCCCCC" d="M0,0v52.7h174V0H0z M54.7,37.3H18.2v-19h36.5V37.3z"/>
	<g>
		<path fill="#CCCCCC" d="M0,70v52.7h68.7v-0.3c0-27.6,21.2-50.2,48.2-52.3H0z M54.7,107.3H18.2v-19h36.5V107.3z M125.4,70
			c27,2.2,48.2,24.8,48.2,52.3v0.3h0.3V70H125.4z"/>
		<path fill="#CCCCCC" d="M125.4,70h-8.5c1.4-0.1,2.8-0.2,4.3-0.2S124,69.9,125.4,70z"/>
	</g>
	<g>
		<path fill="#CCCCCC" d="M171.4,162l-19-19c4.6-6.4,7.1-14.1,7.1-22.1c0-10.2-4-19.7-11.1-26.9c-7.2-7.2-16.7-11.1-26.9-11.1
			c-10.2,0-19.7,4-26.9,11.1c-7.2,7.2-11.1,16.7-11.1,26.9s4,19.7,11.1,26.9c7.2,7.2,16.7,11.1,26.9,11.1c8.1,0,15.7-2.5,22.1-7.1
			l19,19c1.2,1.2,2.8,1.8,4.4,1.8c1.6,0,3.2-0.6,4.4-1.8C173.8,168.4,173.8,164.4,171.4,162z M103.4,139.1
			c-4.8-4.8-7.5-11.3-7.5-18.1c0-6.8,2.7-13.3,7.5-18.1c4.8-4.8,11.3-7.5,18.1-7.5s13.3,2.7,18.1,7.5c4.8,4.8,7.5,11.3,7.5,18.1
			s-2.7,13.3-7.5,18.1c-4.8,4.8-11.3,7.5-18.1,7.5S108.2,143.9,103.4,139.1z"/>
	</g>
</g>
</svg>
