<?xml version="1.0" encoding="utf-8"?>
<!-- Generator: Adobe Illustrator 18.0.0, SVG Export Plug-In . SVG Version: 6.00 Build 0)  -->
<!DOCTYPE svg PUBLIC "-//W3C//DTD SVG 1.1 Tiny//EN" "http://www.w3.org/Graphics/SVG/1.1/DTD/svg11-tiny.dtd">
<svg version="1.1" baseProfile="tiny" id="Layer_1" xmlns="http://www.w3.org/2000/svg" xmlns:xlink="http://www.w3.org/1999/xlink"
	 x="0px" y="0px" viewBox="0 0 48 55" xml:space="preserve">
<g display="none">
	<path display="inline" fill-rule="evenodd" fill="#A02302" d="M-13.6,49.6l4.5,6.7V39.1L-13.6,49.6z"/>
	<path display="inline" fill-rule="evenodd" fill="#A02302" d="M55.9-19.3l6.7,4.5H45.4L55.9-19.3z"/>
	<path display="inline" fill-rule="evenodd" fill="#F15A29" d="M-13.5,25l45.1-44.3l24.5,0l-69.6,68.7L-13.5,25z"/>
</g>
<path fill-rule="evenodd" fill="#DAE1E6" d="M24,7c13.3,0,24,10.7,24,24c0,13.3-10.7,24-24,24S0,44.3,0,31C0,17.7,10.7,7,24,7z"/>
<g>
	<path fill="#0F3148" d="M39.7,27.8c-0.2-1.4-0.8-2.6-2-3.5c-0.6-0.5-1.3-0.7-2-0.9c-2.1-0.6-4-1.6-5.8-2.7c-0.3-0.2-0.6-0.3-1-0.2
		c-0.4,0.1-0.7,0.4-0.8,0.8c-0.1,0.5,0.1,0.9,0.6,1.2c2,1.3,4.2,2.4,6.5,3.1c1.3,0.4,2,1.2,2.3,2.5c0.3,1.5,0.3,2.9,0.1,4.4
		c0,0.2-0.2,0.3-0.3,0.4c-2.6,1.4-5.4,2.2-8.2,2.7C25.6,36,22,36,18.5,35.4c-2.8-0.5-5.4-1.3-7.9-2.6c-0.2-0.1-0.3-0.3-0.3-0.5
		c-0.1-1.4-0.2-2.7,0.1-4.1c0.2-1.4,1-2.4,2.4-2.7c0.5-0.1,0.9-0.3,1.4-0.4c1.8-0.7,3.5-1.5,5.1-2.6c0.6-0.4,0.7-1.1,0.3-1.6
		c-0.4-0.5-0.9-0.5-1.5-0.1c-1.9,1.2-3.9,2.2-6.1,2.8C10.2,24,9,25.1,8.5,26.8c-0.6,1.8-0.5,3.7-0.4,5.6c0.1,1.2,0.6,1.9,1.7,2.5
		c3.3,1.6,6.7,2.5,10.3,2.9c0.8,0.1,1.5,0.1,2.3,0.2h3.2c0.1,0,0.2,0,0.4-0.1c1.6-0.2,3.3-0.3,4.9-0.6c2.8-0.5,5.4-1.4,7.9-2.8
		c0.6-0.3,0.9-0.8,1-1.5C40,31.3,40,29.5,39.7,27.8z M23.2,20.4c3.5,0.4,6.4-1.3,7.8-4.6c1.3-3.1,1.4-6.3,0.8-9.6
		c-0.6-3-2.4-5.1-5.4-5.9c-0.5-0.2-1.1-0.2-1.6-0.3h-1.6c-0.3,0.1-0.5,0.1-0.8,0.2c-2.1,0.4-3.9,1.4-5,3.3c-0.8,1.3-1.2,2.8-1.3,4.4
		c-0.2,2.3-0.1,4.6,0.6,6.9C17.6,18,19.6,20.1,23.2,20.4z M18.3,6.3c0.6-2.4,2.5-3.9,5-4.1c1-0.1,2,0,3,0.4c1.8,0.6,2.9,2,3.3,3.8
		c0.6,2.7,0.6,5.5-0.4,8.2c-0.5,1.4-1.3,2.6-2.6,3.3c-2.9,1.5-6.3,0.3-7.7-2.7c-0.8-1.7-1-3.5-1-5.3c0,0-0.1,0-0.1,0
		C18,8.6,18.1,7.4,18.3,6.3z"/>
</g>
</svg>
