<?xml version="1.0" encoding="utf-8"?>
<!-- Generator: Adobe Illustrator 18.0.0, SVG Export Plug-In . SVG Version: 6.00 Build 0)  -->
<!DOCTYPE svg PUBLIC "-//W3C//DTD SVG 1.1//EN" "http://www.w3.org/Graphics/SVG/1.1/DTD/svg11.dtd">
<svg version="1.1" id="Layer_1" xmlns="http://www.w3.org/2000/svg" xmlns:xlink="http://www.w3.org/1999/xlink" x="0px" y="0px"
	 viewBox="0 0 512 512" enable-background="new 0 0 512 512" xml:space="preserve">
<path fill="#A9D8FF" d="M49.1,272.6v131.3h30V302.6H256v-30H49.1z"/>
<path fill="#9FD4FF" d="M256,272.6v30h176.9v101.3h30V272.6H256z"/>
<path fill="#9FD4FF" d="M241,171.3h30v232.5h-30V171.3z"/>
<path fill="#FF719D" d="M0,383.9h128.1V512H0V383.9z"/>
<path fill="#E42547" d="M383.9,383.9H512V512H383.9V383.9z"/>
<path fill="#E02850" d="M320.1,512V383.9H256l-20,64.1l20,64.1H320.1z"/>
<path fill="#ED4873" d="M191.9,383.9H256V512h-64.1V383.9z"/>
<path fill="#FF92B6" d="M415.8,0H256l-20,95.7l20,95.7h159.8V0z"/>
<path fill="#FFB6C9" d="M96.3,0H256v191.4H96.3V0z"/>
<path fill="#1A3148" d="M367.9,48.8H256l-10,15l10,15h111.9V48.8z"/>
<path fill="#1A3148" d="M367.9,112.6H256l-10,15l10,15h111.9V112.6z"/>
<g>
	<path fill="#214868" d="M144.1,48.8H256v30H144.1V48.8z"/>
	<path fill="#214868" d="M144.1,112.6H256v30H144.1V112.6z"/>
</g>
</svg>
