<?xml version="1.0" encoding="utf-8"?>
<!-- Generator: Adobe Illustrator 18.0.0, SVG Export Plug-In . SVG Version: 6.00 Build 0)  -->
<!DOCTYPE svg PUBLIC "-//W3C//DTD SVG 1.1//EN" "http://www.w3.org/Graphics/SVG/1.1/DTD/svg11.dtd">
<svg version="1.1" id="Capa_1" xmlns="http://www.w3.org/2000/svg" xmlns:xlink="http://www.w3.org/1999/xlink" x="0px" y="0px"
	 viewBox="0 0 80 80" enable-background="new 0 0 80 80" xml:space="preserve">
<path fill="#D3A06C" d="M24.4,38.7v-9c0-8.6,6.9-15.5,15.5-15.5l0,0c8.6,0,15.5,6.9,15.5,15.5v9H24.4z"/>
<path fill="#B27946" d="M39.9,14.2c-0.4,0-0.9,0-1.3,0.1c7.9,0.7,14.2,7.3,14.2,15.4v9h2.6v-9C55.4,21.1,48.5,14.2,39.9,14.2z"/>
<path fill="#E42547" d="M34.7,68.4h28.4l-2.4-7.3c-0.9-2.7-3.2-4.7-6-5.2l-9.7-1.8H34.7L25.1,56c-2.8,0.5-5.1,2.5-6,5.2L18,66.3v2.1
	H34.7z"/>
<g>
	<polygon fill="#F9E0A6" points="34.7,50.3 34.7,54.2 39.9,59.4 45.1,54.2 45.1,50.3 	"/>
	<path fill="#F9E0A6" d="M50.2,34.8h1.3c2.1,0,3.9,1.7,3.9,3.9l0,0c0,2.1-1.7,3.9-3.9,3.9h-1.3V34.8z"/>
	<path fill="#F9E0A6" d="M29.6,34.8h-1.3c-2.1,0-3.9,1.7-3.9,3.9l0,0c0,2.1,1.7,3.9,3.9,3.9h1.3V34.8z"/>
	<path fill="#F9E0A6" d="M28.3,33.5v7.7c0,6.4,5.2,11.6,11.6,11.6l0,0c6.4,0,11.6-5.2,11.6-11.6v-7.7l0,0c-4.1,0-8.1-1.6-11-4.6
		l-0.6-0.6L39.3,29C36.4,31.9,32.4,33.5,28.3,33.5L28.3,33.5z"/>
</g>
<path fill="#EABD8C" d="M48.9,41.3c0,6-4.5,10.9-10.3,11.5c0.4,0,0.9,0.1,1.3,0.1c6.4,0,11.6-5.2,11.6-11.6v-7.7
	c-0.9,0-1.7-0.1-2.6-0.2V41.3z"/>
<path fill="#ECECEC" d="M58,1.3H76c1.4,0,2.6,1.2,2.6,2.6v10.3c0,1.4-1.2,2.6-2.6,2.6h-3.9l-10.3,6.5l1.1-6.5h-5
	c-1.4,0-2.6-1.2-2.6-2.6V3.9C55.4,2.4,56.5,1.3,58,1.3z"/>
<path fill="#D8002F" d="M57.5,68.4h5.6l-2.4-7.3c-0.9-2.7-3.2-4.7-6-5.2l-9.7-1.8l9.3,5.2c1.5,0.8,2.4,2.3,2.6,3.9L57.5,68.4z"/>
<path fill="#E42547" d="M29.6,63.9L25,68c-1,1-2.6,1-3.6,0l-9.3-9.3c-1-1-1-2.6,0-3.6l4.2-4.2l-7.7-7.7l-4.8,4.8c-3,3-3,7.9,0,10.9
	l17.4,17.4c3,3,7.9,3,10.9,0l5.3-4.8L29.6,63.9z"/>
<path d="M61.9,60.7c-1-3.1-3.7-5.4-7-6l-8.6-1.6v-0.7c1.5-0.9,2.8-2,3.8-3.4h2.6c2.1,0,3.9-1.7,3.9-3.9V29.7
	c0-9.2-7.5-16.8-16.8-16.8s-16.8,7.5-16.8,16.8v9c0,2.5,1.8,4.6,4.1,5.1c0.7,3.7,3,6.8,6.2,8.7v0.7l-8.6,1.6c-3.2,0.6-5.9,2.9-7,6
	l-0.5,1.5L13,57.9c-0.5-0.5-0.5-1.3,0-1.8l5.1-5.1l-9.6-9.6l-5.8,5.8c-1.7,1.7-2.6,4-2.6,6.4s0.9,4.7,2.6,6.4l17.4,17.4
	c1.7,1.7,4,2.6,6.4,2.6s4.7-0.9,6.3-2.6l6.3-5.8l-2-2h27.7L61.9,60.7z M39.9,57.5L36,53.7v-0.1c1.2,0.4,2.5,0.6,3.9,0.6
	c1.3,0,2.6-0.2,3.9-0.6v0.1L39.9,57.5z M52.8,46.5h-1.1c0.4-0.9,0.7-1.8,0.8-2.7c0.6-0.1,1.1-0.3,1.5-0.6v2
	C54.1,45.9,53.5,46.5,52.8,46.5z M52.8,36.5c0.8,0.4,1.3,1.3,1.3,2.2c0,1-0.5,1.8-1.3,2.2V36.5z M25.7,38.7c0-1,0.5-1.8,1.3-2.2v4.4
	C26.2,40.5,25.7,39.7,25.7,38.7z M27,32.3v1.5c-0.5,0.1-0.9,0.3-1.3,0.5v-4.6c0-7.8,6.4-14.2,14.2-14.2s14.2,6.4,14.2,14.2v4.6
	c-0.4-0.2-0.8-0.4-1.3-0.5v-1.5h-1.3c-3.8,0-7.4-1.5-10.1-4.2l-1.5-1.5l-1.5,1.5c-2.7,2.7-6.3,4.2-10.1,4.2H27z M29.6,41.3v-6.5
	c3.9-0.3,7.5-1.9,10.3-4.6c2.8,2.7,6.4,4.3,10.3,4.6v6.5c0,1.9-0.5,3.6-1.4,5.2h-8.9V49h6.8c-1.8,1.6-4.2,2.6-6.8,2.6
	C34.2,51.6,29.6,47,29.6,41.3z M14.4,50.9L13,52.3l-5.9-5.9L8.5,45L14.4,50.9z M26.6,77.4c-1.7,0-3.3-0.7-4.6-1.9L4.6,58.1
	c-1.2-1.2-1.9-2.8-1.9-4.6c0-1.7,0.7-3.3,1.9-4.6l0.7-0.7l5.9,5.9l0,0c-1.5,1.5-1.5,4,0,5.5l9.3,9.3c0.7,0.7,1.7,1.1,2.7,1.1
	c1,0,2-0.4,2.7-1.1l0.1-0.1l5.9,5.9l-0.7,0.7C29.9,76.7,28.3,77.4,26.6,77.4z M33.8,73.1l-5.9-5.9l1.7-1.5l5.9,5.9L33.8,73.1z
	 M34.7,67.1l-5-5L24,67.1c-0.5,0.5-1.3,0.5-1.8,0l-2.8-2.8l0.9-2.8c0.7-2.2,2.6-3.9,5-4.3l9-1.6l5.6,5.6l5.6-5.6l9,1.6
	c2.3,0.4,4.2,2.1,5,4.3l1.9,5.6H34.7z"/>
<path fill="#E42547" d="M76,0H58c-2.1,0-3.9,1.7-3.9,3.9v10.3c0,2.1,1.7,3.9,3.9,3.9h3.4l-1.3,7.8l12.5-7.8H76
	c2.1,0,3.9-1.7,3.9-3.9V3.9C79.9,1.7,78.2,0,76,0z M77.3,14.2c0,0.7-0.6,1.3-1.3,1.3h-4.2l-8.2,5.1l0.9-5.1H58
	c-0.7,0-1.3-0.6-1.3-1.3V3.9c0-0.7,0.6-1.3,1.3-1.3H76c0.7,0,1.3,0.6,1.3,1.3V14.2z"/>
<rect x="59.3" y="5.2" fill="#1A3148" width="15.5" height="2.6"/>
<rect x="59.3" y="10.3" fill="#1A3148" width="10.3" height="2.6"/>
<rect x="72.2" y="10.3" fill="#1A3148" width="2.6" height="2.6"/>
<path fill="#1A3148" d="M12.2,32.1l-1.3-2.2L7.4,32C11,17.1,24.4,6.5,39.9,6.5c3.4,0,6.7,0.5,9.9,1.5l0.8-2.5
	c-3.5-1.1-7.1-1.6-10.7-1.6C23,3.9,8.5,15.5,4.8,31.8l-2.4-4.1l-2.2,1.3l4.5,7.6L12.2,32.1z"/>
<path fill="#1A3148" d="M67.2,31.6l2.2,1.3l2.3-3.8c1.2,3.5,1.8,7.1,1.8,10.8c0,7.7-2.7,15.2-7.5,21.1l2,1.6
	C73.2,56.3,76,48.3,76,40c0-3.9-0.6-7.8-1.9-11.5l3.8,2.3l1.3-2.2L71.7,24L67.2,31.6z"/>
</svg>
