<?xml version="1.0" encoding="utf-8"?>
<!-- Generator: Adobe Illustrator 18.0.0, SVG Export Plug-In . SVG Version: 6.00 Build 0)  -->
<!DOCTYPE svg PUBLIC "-//W3C//DTD SVG 1.1//EN" "http://www.w3.org/Graphics/SVG/1.1/DTD/svg11.dtd">
<svg version="1.1" id="Layer_1" xmlns="http://www.w3.org/2000/svg" xmlns:xlink="http://www.w3.org/1999/xlink" x="0px" y="0px"
	 viewBox="0 0 500 500" enable-background="new 0 0 500 500" xml:space="preserve">
<g>
	<path fill="#231F20" d="M409,440.8H69.8c-36.3,0-69.7-30.3-69.7-69.7V98.6c0-21.2,15.1-39.4,39.4-39.4h106
		c15.1,0,24.2,9.1,30.3,15.1l12.1,15.1h242.3c18.2,0,36.3,9.1,51.5,21.2c12.1,15.1,18.2,33.3,18.2,54.5l-18.2,212
		C472.6,410.5,442.3,440.8,409,440.8z M39.5,77.4c-15.1,0-24.2,6.1-24.2,21.2v272.6c0,30.3,24.2,54.5,54.5,54.5H409
		c27.3,0,51.5-21.2,54.5-48.5l18.2-212c0-15.1-3-30.3-15.1-42.4c-9.1-12.1-24.2-18.2-39.4-18.2H197l21.2,36.3
		c6.1,6.1,12.1,12.1,18.2,12.1h136.3c21.2,0,39.4,15.1,39.4,39.4v151.4h-15.1V192.5c0-15.1-9.1-24.2-24.2-24.2H236.4
		c-12.1,0-24.2-6.1-30.3-18.2l-42.4-66.6c-3-3-12.1-6.1-18.2-6.1H39.5z"/>
</g>
</svg>
