<?xml version="1.0" encoding="utf-8"?>
<!-- Generator: Adobe Illustrator 18.0.0, SVG Export Plug-In . SVG Version: 6.00 Build 0)  -->
<!DOCTYPE svg PUBLIC "-//W3C//DTD SVG 1.1 Tiny//EN" "http://www.w3.org/Graphics/SVG/1.1/DTD/svg11-tiny.dtd">
<svg version="1.1" baseProfile="tiny" id="Layer_1" xmlns="http://www.w3.org/2000/svg" xmlns:xlink="http://www.w3.org/1999/xlink"
	 x="0px" y="0px" viewBox="0 0 80 80" xml:space="preserve">
<path display="none" fill="#0E3148" d="M60.5,41.9c-0.3,0.5-0.7,0.6-1.2,0.6c-3.9,0-7.8,0-11.8,0c-0.3,0-0.4,0.1-0.6,0.4
	c-0.1,0.3-0.3,0.6-0.5,0.8c-0.8,1.1-1.6,2.1-2.4,3.2c-0.2,0.2-0.3,0.4-0.4,0.7c-0.8,2.1-1.8,4.1-3.6,5.6C40,53.2,40,53.3,40,53.4
	c0,1.2,0,2.4,0,3.6c0.3,0,0.6,0,0.8,0c0.6,0,0.9,0.4,0.9,0.9c0,1.6,0,3.3,0,4.9c0,0.1,0,0.1,0,0.2c-0.6,0-1.1,0-1.7,0
	c0-1.4,0-2.8,0-4.2c-6.3,0-12.5,0-18.8,0c0,1.4,0,2.8,0,4.2c-0.6,0-1.1,0-1.7,0c0-1.8,0-3.6,0-5.4c0.3-0.8,1.1-0.6,1.7-0.6
	c0-0.3,0-0.4,0-0.6c0-1.1,0-2.2,0.1-3.2c0.2-3.3,0.4-6.6,0.6-9.9c0.2-2.8,0.4-5.5,0.5-8.3c0.1-0.9,0.3-1.6,0.8-2.3
	c1.8-2.7,3.7-5.4,5.5-8.2c0.5-0.7,1-1.3,1.8-1.7c0.6-0.3,1.3-0.5,2-0.7c4.9,0,9.7,0,14.6,0c0.7,0.4,0.5,1.1,0.6,1.7
	c0.2,0,0.3,0,0.4,0c3.8,0,7.5,0,11.3,0c0.5,0,0.9,0.1,1.1,0.6C60.5,30.2,60.5,36.1,60.5,41.9z M23,52.7c0.1,0,0.3,0,0.4,0
	c4.4,0,8.9,0,13.3,0c0.7,0,1.3-0.1,1.8-0.5c0.5-0.3,0.9-0.7,1.3-1.1c1.2-1.2,1.8-2.8,2.4-4.3c0.1-0.3,0.3-0.6,0.4-0.8
	c0.8-1.1,1.7-2.3,2.6-3.4c0.8-1.1,0.8-2.2,0-3.2c-0.5-0.6-0.8-0.7-1.5-0.2c-1.4,1-2.9,2-4.3,3.1c-0.3,0.2-0.7,0.4-1.1,0.4
	c-1.3,0-2.6,0-3.9,0c-0.9,0-1.1-0.3-1.1-1.1c0-4.3,0-8.7,0-13c0-0.9,0.2-1.2,1.2-1.2c2.8,0,5.6,0,8.4,0c2.1,0,3.2-1.1,3.3-3
	c0-0.2,0-0.4-0.3-0.4c-4.2,0-8.4,0-12.6,0c-1.2,0-2.1,0.5-2.7,1.5c-1.9,2.8-3.8,5.6-5.7,8.4c-0.2,0.4-0.4,0.9-0.5,1.3
	c-0.2,2.1-0.3,4.2-0.4,6.2c-0.2,2.6-0.4,5.3-0.5,7.9C23.1,50.3,23.1,51.5,23,52.7z M47.4,40.8c0.2,0,0.3,0,0.4,0c3.5,0,7,0,10.6,0
	c0.4,0,0.5-0.1,0.5-0.5c0-4.8,0-9.7,0-14.5c0-0.1,0-0.2,0-0.4c-0.1,0-0.2,0-0.3,0c-3.6,0-7.2,0-10.7,0c-0.2,0-0.3,0.1-0.4,0.3
	c-0.5,1.3-1.4,2.2-2.6,2.7c-0.7,0.3-1.5,0.4-2.3,0.4c-2.3,0-4.7,0-7,0c-0.2,0-0.3,0-0.5,0c0,4,0,8,0,12c1,0,2,0,3,0
	c0.2,0,0.5-0.1,0.7-0.2c1.4-0.9,2.7-1.9,4.1-2.9c1.2-0.9,2.9-0.6,3.8,0.6C47,39,47.3,39.9,47.4,40.8z M38.3,57c0-0.8,0-1.5,0-2.3
	c0-0.2-0.1-0.3-0.3-0.3c-0.5,0-0.9,0-1.4,0c-4.4,0-8.8,0-13.2,0c-0.1,0-0.3,0-0.4,0c0,0.8,0,1.6,0,2.5C28.1,57,33.1,57,38.3,57z"/>
<g>
	<g>
		<g>
			<path fill-rule="evenodd" fill="#DAE1E6" d="M42.5,19.6c13.3,0,24,10.7,24,24s-10.7,24-24,24s-24-10.7-24-24S29.2,19.6,42.5,19.6
				z"/>
			<g display="none">
				<path display="inline" fill="#0E3148" d="M28.9,22.1c-0.4-0.4-0.8-0.9-1.2-1.3c-0.6-0.7-0.6-1.6,0-2.2c0.3-0.3,0.7-0.5,1.2-0.5
					c0.4,0,0.7,0.1,1,0.4c2,2,4,4.1,6,6.1c0.7,0.7,1.4,1.4,2.1,2.1c-3.3,6.2-3,11.1,0.7,14.7l0.3,0.3l1.2-1.5l-0.2-0.2
					c-2.9-4.2-3-8.6-0.4-11.5c0.2,0.2,0.4,0.5,0.7,0.6c0.3,0.1,0.6,0.2,0.9,0.2c0.1,0,0.2,0,0.3,0l0.4,0.1l0-0.5c0-0.1,0-0.2,0-0.3
					c0-0.3,0-0.6-0.1-0.9c-0.2-0.3-0.4-0.6-0.6-0.8c1.5-1.2,3.1-1.8,4.8-1.8c1.9,0,4.1,0.8,6.6,2.3l0.3,0.2l1.3-1.4l-0.3-0.3
					c-2.1-2-4.4-3-6.9-3c-2.3,0-4.7,0.8-7.4,2.4c0,0-0.1-0.1-0.1-0.1c-0.2-0.2-0.4-0.4-0.7-0.6c-0.8-0.8-1.6-1.7-2.4-2.5
					c-1.5-1.5-3.1-3.1-4.6-4.7c-0.9-0.9-1.9-1.4-3-1.4c-0.9,0-1.8,0.4-2.6,1.1c-1.5,1.5-1.5,3.9,0.1,5.6c0.3,0.3,0.6,0.6,0.9,0.9
					c0.4,0.4,0.9,0.9,1.3,1.4c0.6,0.7,0.6,1.5,0,2.1c-0.6,0.7-1.3,0.7-2.1,0.2c-0.2-0.2-0.4-0.4-0.7-0.6c-0.1-0.1-0.1-0.1-0.2-0.2
					c-0.8-0.8-1.6-1.6-2.3-2.4c-2.5-2.5-5.1-5.2-7.6-7.7c-0.3-0.3-0.7-0.3-1-0.4c-0.1,0-0.3,0-0.4-0.1l-0.5-0.1l0.1,0.9
					c0.1,0.3,0.1,0.7,0.2,1c0,0.2,0.2,0.3,0.2,0.4c0,0,0,0,0,0c1,1,2,2,2.9,3c2.4,2.5,4.9,5,7.4,7.5c0.8,0.9,1.9,1.3,2.9,1.3
					c1,0,1.9-0.4,2.6-1.1c1.5-1.5,1.4-3.9-0.2-5.6C29.4,22.7,29.2,22.4,28.9,22.1z M64.8,21.6c-0.7,0.2-1.3,0.4-1.9,0.6
					c-1.5,0.5-3,0.9-4.5,1.4c-0.8,0.3-1.6,0.7-2.1,1.3c-2,2-4,4.1-6,6.1c-1.1,1.1-2.2,2.2-3.3,3.3c-2.7,2.8-5.4,5.5-8.1,8.3
					l-3.8,3.9l1.7,1.8l0.3-0.3c0.1-0.2,0.2-0.3,0.3-0.4c0.2-0.2,0.3-0.5,0.5-0.6l3.1-3.1c5.5-5.6,11.1-11.4,16.7-17
					c0.6-0.6,1.5-1,2.5-1.3l0.1,0c0,0,0,0,0.1,0c0.3,0,0.8,0.3,1.1,0.8c0.2,0.3,0.2,0.5,0.2,0.5L61.5,27c-0.3,0.9-0.7,1.8-1.2,2.4
					C54.2,35.7,48,42,41.9,48.1l-1.3,1.3c-0.2,0.2-0.5,0.4-0.8,0.6c-0.2,0.1-0.3,0.2-0.5,0.3L39,50.6l1.8,1.7l0.2-0.2
					c0.1,0,0.1-0.1,0.2-0.1c0.1-0.1,0.2-0.2,0.3-0.3c7-7.1,13.9-14.2,20.9-21.3l0.1-0.1c0.2-0.2,0.4-0.4,0.5-0.7
					c0.6-1.9,1.2-3.8,1.8-5.9l0.7-2.4L64.8,21.6z M60.9,33.1l-1.4,1.5l0.2,0.3c3.5,4.6,3.7,9,0.6,12.6C58.9,49,57.1,50,55,50.3
					c-2.8,0.4-5.3-0.6-7.6-2.8l-0.2-0.2l-1.6,1.4l0.3,0.3c2.4,2.4,5.1,3.6,7.9,3.6c1,0,2.1-0.2,3.2-0.5c4.2-1.3,6.9-4.3,7.6-8.8
					c0.7-3.9-0.5-7.3-3.3-10L60.9,33.1z M59.6,28.6l-1.1-1.1L37.3,48.9l1.1,1.1L59.6,28.6z M37.5,53c-0.3,0-0.5,0.1-0.8,0.2
					c-0.3,0.1-0.5,0.2-0.8,0.2c-0.5,0-0.9-0.2-1.1-0.6c-0.3-0.6-0.6-1.5-0.4-2.1c0.4-1.1,0-1.6-0.8-2.1l-0.3-0.2l-0.2,0.2
					c-0.8,0.9-1.2,2-1.1,3.2c0.1,1.1,0.6,2.1,1.4,2.8c0.7,0.6,1.7,1,2.6,1c1.1,0,2.1-0.5,2.8-1.3l0.2-0.2l-0.1-0.2
					C38.5,53.4,38.2,53,37.5,53z"/>
			</g>
		</g>
		<g display="none">
			<path display="inline" fill="#0E3148" d="M61.4,16.8c-3.8,0-7.5,0-11.3,0h-0.4c0-0.6,0.1-1.3-0.6-1.7H34.6
				c-0.7,0.2-1.3,0.4-2,0.7c-0.8,0.4-1.3,1-1.8,1.7c-1.8,2.7-3.7,5.4-5.5,8.2c-0.5,0.7-0.8,1.5-0.8,2.3c-0.2,2.8-0.4,5.5-0.5,8.3
				c-0.2,3.3-0.4,6.6-0.6,9.9c-0.1,1.1,0,2.2-0.1,3.2c0,0.2,0,0.4,0,0.6c-0.6,0.1-1.4-0.2-1.7,0.6v5.4h1.7v-4.2H42v4.2h1.7
				c0-0.1,0-0.1,0-0.2c0-1.6,0-3.3,0-4.9c0-0.6-0.4-0.9-0.9-0.9c-0.3,0-0.5,0-0.8,0c0-1.2,0-2.4,0-3.6c0-0.1,0.1-0.2,0.1-0.2
				c1.8-1.5,2.8-3.5,3.6-5.6c0.1-0.2,0.2-0.5,0.4-0.7c0.8-1.1,1.6-2.1,2.4-3.2c0.2-0.3,0.4-0.5,0.5-0.8c0.1-0.3,0.3-0.4,0.6-0.4
				c3.9,0,7.8,0,11.8,0c0.5,0,0.9-0.1,1.2-0.6V17.4C62.3,16.9,61.9,16.8,61.4,16.8z M40.3,50.1H24.9v-2.5c0.2,0,0.3,0,0.4,0
				c4.4,0,8.8,0,13.2,0c0.5,0,0.9,0,1.4,0c0.2,0,0.3,0,0.3,0.3C40.3,48.5,40.3,49.3,40.3,50.1z M47.2,35.6c-0.8,1.1-1.7,2.3-2.6,3.4
				c-0.2,0.3-0.3,0.5-0.4,0.8c-0.6,1.6-1.2,3.1-2.4,4.3c-0.4,0.4-0.9,0.8-1.3,1.1c-0.5,0.4-1.1,0.5-1.8,0.5c-4.4,0-8.9,0-13.3,0
				c-0.1,0-0.2,0-0.4,0c0.1-1.2,0.2-2.4,0.2-3.6c0.2-2.6,0.4-5.3,0.5-7.9c0.1-2.1,0.3-4.2,0.4-6.2c0-0.4,0.2-0.9,0.5-1.3
				c1.9-2.8,3.8-5.6,5.7-8.4c0.7-1,1.6-1.5,2.7-1.5c4.2,0,8.4,0,12.6,0c0.3,0,0.3,0.2,0.3,0.4c-0.1,2-1.2,3-3.3,3
				c-2.8,0-5.6,0-8.4,0c-0.9,0-1.2,0.2-1.2,1.2c0,4.3,0,8.7,0,13c0,0.9,0.3,1.1,1.1,1.1c1.3,0,2.6,0,3.9,0c0.4,0,0.8-0.1,1.1-0.4
				c1.4-1,2.9-2,4.3-3.1c0.7-0.5,1-0.4,1.5,0.2C47.9,33.4,48,34.6,47.2,35.6z M60.3,33.9c-3.5,0-7,0-10.6,0h-0.4
				c-0.1-0.9-0.3-1.8-0.9-2.5c-0.9-1.2-2.6-1.5-3.8-0.6c-1.4,1-2.7,1.9-4.1,2.9c-0.2,0.1-0.5,0.2-0.7,0.2c-1,0-2,0-3,0v-12h0.5
				c2.3,0,4.7,0,7,0c0.8,0,1.6-0.1,2.3-0.4c1.2-0.5,2.2-1.4,2.6-2.7c0.1-0.2,0.2-0.3,0.4-0.3c3.6,0,7.2,0,10.7,0c0.1,0,0.2,0,0.3,0
				c0,0.1,0,0.2,0,0.4c0,4.8,0,9.7,0,14.5C60.8,33.8,60.7,33.9,60.3,33.9z M55.7,20.2c-1.8,0-3.4,1.6-3.4,3.4c0,1.8,1.6,3.4,3.4,3.4
				c1.8,0,3.4-1.6,3.4-3.4C59.1,21.9,57.5,20.2,55.7,20.2z M55.7,25.3c-1.1,0-1.7-0.7-1.7-1.7c0-1,0.7-1.7,1.7-1.7
				c1.1,0,1.7,0.7,1.7,1.7C57.4,24.7,56.7,25.3,55.7,25.3z M38.6,25.3h11.9v-1.6H38.6V25.3z"/>
		</g>
	</g>
	<g>
		<path fill="#0E3148" d="M63,16.6c-2.2-1.3-4.6-2.4-6.9-3.4c-0.9-0.4-1.8-0.7-2.8-0.8c-0.9-0.1-1.8-0.1-2.7,0c-0.8,0-1,0.2-1.1,1
			c-0.1,0.7-0.2,1.5-0.5,2.1c-1.1,2.7-3.9,4.9-7.7,4.3c-2.6-0.4-4.4-1.9-5.4-4.3c-0.2-0.5-0.3-1.1-0.5-1.8h11.9
			c0.4,0,0.7-0.3,0.7-0.7c0-0.3-0.3-0.7-0.6-0.7c-5,0-9.9,0-14.9,0c-1.1,0-2.2,0.2-3.3,0.6c-2.5,1-4.9,2.3-7.3,3.5
			c-0.2,0.1-0.3,0.2-0.5,0.4v0.4c0,0.1,0.1,0.3,0.1,0.4c0.8,3.2,1.6,6.3,2.4,9.5c0.1,0.4,0.3,0.9,0.4,1.3c0.1,0.3,0.2,0.4,0.6,0.3
			c0.2,0,0.5-0.1,0.7-0.1c0.8-0.1,1.6-0.2,2.4-0.4c0.2,0,0.3,0,0.3,0.2c0,0.1,0,0.3,0,0.4c0,4.8,0,9.7,0,14.5c0,1.9,0.1,3.7,0.1,5.6
			c0,0.6,0.2,1.2,0.6,1.7c0.6,0.8,1.4,1.3,2.4,1.4c0.3,0,0.6,0,0.8,0c4.8,0,9.5,0,14.3,0c2.1,0,4.1,0,6.2,0c0.3,0,0.7,0,1-0.1
			c1.5-0.3,2.6-1.7,2.6-3.2c0-2.3,0.1-4.5,0.1-6.8c0-4.1,0-8.2,0-12.2c0-0.5,0-1,0-1.4c0-0.2,0.1-0.2,0.2-0.2
			c0.4,0.1,0.7,0.1,1.1,0.2c0.7,0.1,1.3,0.2,2,0.3c0.4,0,0.6-0.1,0.7-0.5c0.2-0.6,0.3-1.2,0.5-1.8c0.8-3,1.5-6,2.3-9
			C63.6,17,63.6,16.9,63,16.6z M61.9,17.9c-0.4,1.5-0.7,3-1.1,4.5c-0.4,1.6-0.8,3.2-1.2,4.8c-0.1,0.3-0.1,0.3-0.4,0.3
			c-1-0.2-2-0.3-3.1-0.5c-0.3,0-0.5-0.1-0.8,0.1c-0.1,0.1-0.2,0.2-0.2,0.4c0,2.3,0,4.5,0,6.8c0,4.6,0,9.1-0.1,13.7
			c0,0.1,0,0.2,0,0.3c-0.1,0-0.2,0-0.3,0c-7.6,0-15.3,0-22.9,0c-0.4,0-0.5,0.2-0.6,0.4c-0.1,0.2-0.1,0.4,0.1,0.6
			c0.2,0.2,0.4,0.3,0.7,0.3c7.5,0,15.1,0,22.6,0h0.3c-0.2,0.7-0.9,1.2-1.6,1.3c-1.1,0-2.3,0.1-3.4,0.1c-5.4,0-10.8,0-16.2,0
			c-0.7,0-1.3-0.1-2-0.1c-0.8,0-1.3-0.4-1.7-1.1c-0.2-0.3-0.2-0.5-0.2-0.9c0-7.2,0-14.3-0.1-21.5c0-0.4-0.2-0.6-0.6-0.6
			c-0.5,0-1,0.1-1.5,0.2c-0.6,0.1-1.3,0.2-1.9,0.3c-0.2,0-0.3,0-0.4-0.2c-0.8-3.1-1.6-6.2-2.4-9.3c0-0.2,0-0.3,0.1-0.4
			c0.4-0.2,0.8-0.4,1.3-0.7c0.1,0.5,0.2,1,0.4,1.4c0.6,2.3,1.2,4.6,1.8,6.9c0.1,0.2,0.1,0.4,0.2,0.6c0.1,0.3,0.3,0.4,0.6,0.4
			c0.4-0.1,0.7-0.5,0.6-0.9c-0.7-2.9-1.5-5.9-2.2-8.8c0-0.2,0-0.3,0.1-0.3c1.6-0.8,3.2-1.6,4.9-2.1c0.6-0.2,1.3-0.2,1.9-0.2
			c0.4,0,0.7,0,1.1,0c0.2,0,0.3,0.1,0.3,0.2c0.2,1.9,1.1,3.6,2.4,4.9c3.6,3.5,8.9,3,12-0.1c1.3-1.3,2-2.9,2.3-4.7
			c0-0.1,0-0.2,0.1-0.3c0.1,0,0.2,0,0.2,0c0.7,0,1.5,0,2.2,0.1c0.1,0,0.2,0,0.3,0c1.8,0.6,3.5,1.3,5.2,2.2c0.4,0.2,0.4,0.2,0.3,0.7
			c-0.7,2.6-1.3,5.2-2,7.8c-0.1,0.3-0.2,0.6-0.2,0.9c-0.1,0.3,0.1,0.6,0.5,0.7c0.4,0.1,0.6,0,0.7-0.3c0.2-0.7,0.4-1.4,0.6-2.1
			c0.6-2.2,1.1-4.4,1.7-6.6c0-0.1,0.1-0.2,0.1-0.4c0.5,0.3,0.9,0.5,1.4,0.8C61.9,17.6,61.9,17.8,61.9,17.9z M48,31.9
			c-0.1,0-0.3-0.1-0.4-0.1c-0.8-0.1-1.7-0.2-2.5-0.2c-0.2,0-0.3-0.1-0.3-0.2c-0.4-0.9-0.8-1.8-1.2-2.8c-0.1-0.2-0.2-0.5-0.4-0.7
			c-0.3-0.4-0.7-0.5-1.2-0.3c-0.3,0.1-0.5,0.3-0.6,0.6c-0.4,1-0.8,1.9-1.1,2.9c-0.1,0.3-0.3,0.5-0.6,0.5c-0.9,0.1-1.7,0.2-2.6,0.2
			c-0.5,0-0.8,0.3-0.9,0.8c-0.2,0.4-0.1,0.8,0.3,1.1c0.3,0.3,0.6,0.5,1,0.8c0.4,0.3,0.8,0.6,1.2,0.9c0.2,0.2,0.2,0.3,0.2,0.6
			c-0.3,1-0.5,1.9-0.8,2.9c-0.2,0.6,0.4,1.1,1,1.2c0.2-0.1,0.4-0.1,0.5-0.2c0.3-0.1,0.5-0.3,0.7-0.4c0.7-0.4,1.3-0.9,2-1.3
			c0.2-0.1,0.3-0.1,0.5,0c0.2,0.2,0.4,0.3,0.7,0.4c0.7,0.4,1.3,0.9,2,1.3c0.4,0.2,0.8,0.2,1.1,0c0.4-0.2,0.5-0.6,0.4-1
			c0-0.1,0-0.2-0.1-0.3c-0.2-0.9-0.4-1.8-0.7-2.7c0-0.2,0-0.3,0.1-0.4c0.5-0.3,0.9-0.7,1.4-1.1c0.3-0.3,0.6-0.5,0.9-0.9
			C49.1,32.9,48.7,32.1,48,31.9z M45.9,34c-0.3,0.3-0.6,0.5-1,0.8c-0.2,0.2-0.3,0.4-0.2,0.7c0.2,0.8,0.3,1.5,0.5,2.3
			c0,0.1,0,0.2,0.1,0.4c-0.1-0.1-0.2-0.1-0.3-0.2c-0.6-0.4-1.2-0.8-1.8-1.3c-0.7-0.5-0.8-0.5-1.5,0c-0.6,0.4-1.1,0.8-1.7,1.1
			c-0.1,0.1-0.2,0.1-0.3,0.2c0.1-0.2,0.1-0.4,0.1-0.5c0.2-0.6,0.3-1.3,0.5-1.9c0.1-0.4,0-0.7-0.3-1c-0.5-0.4-1-0.8-1.5-1.1
			c-0.1-0.1-0.3-0.2-0.4-0.3c0,0,0,0,0-0.1c0.1,0,0.2,0,0.4,0c0.6,0,1.2-0.1,1.9-0.1c0.6,0,1-0.3,1.2-0.9c0.3-0.8,0.6-1.5,0.8-2.3
			c0-0.1,0.1-0.2,0.1-0.3c0.1,0.2,0.1,0.3,0.2,0.4c0.3,0.8,0.7,1.6,1,2.5c0.2,0.5,0.5,0.6,1,0.7c0.7,0,1.3,0.1,2,0.2
			c0.1,0,0.1,0,0.2,0c0,0,0,0,0,0.1C46.6,33.5,46.3,33.7,45.9,34z"/>
	</g>
</g>
</svg>
